Fecha, QNat
01-01-11, 158.78
02-01-11, 159.65
03-01-11, 131.27
04-01-11, 178.82
05-01-11, 226.20
06-01-11, 175.45
07-01-11, 190.65
08-01-11, 189.69
09-01-11, 188.35
10-01-11, 152.60
11-01-11, 129.47
12-01-11, 141.38
13-01-11, 126.24
14-01-11, 117.29
15-01-11, 136.77
16-01-11, 156.46
17-01-11, 158.82
18-01-11, 139.02
19-01-11, 127.21
20-01-11, 139.00
21-01-11, 134.98
22-01-11, 148.32
23-01-11, 136.96
24-01-11, 144.97
25-01-11, 137.89
26-01-11, 144.75
27-01-11, 191.31
28-01-11, 153.54
29-01-11, 133.63
30-01-11, 129.79
31-01-11, 127.52
01-02-11, 133.85
02-02-11, 135.26
03-02-11, 183.91
04-02-11, 88.35
05-02-11, 87.48
06-02-11, 110.62
07-02-11, 168.51
08-02-11, 174.00
09-02-11, 109.89
10-02-11, 163.17
11-02-11, 159.30
12-02-11, 130.38
13-02-11, 148.95
14-02-11, 160.35
15-02-11, 122.59
16-02-11, 114.51
17-02-11, 172.40
18-02-11, 137.39
19-02-11, 171.07
20-02-11, 144.11
21-02-11, 126.92
22-02-11, 127.47
23-02-11, 149.88
24-02-11, 189.03
25-02-11, 143.65
26-02-11, 130.28
27-02-11, 92.40
28-02-11, 118.10
01-03-11, 163.18
02-03-11, 171.05
03-03-11, 191.40
04-03-11, 181.81
05-03-11, 164.81
06-03-11, 153.88
07-03-11, 157.96
08-03-11, 134.58
09-03-11, 243.23
10-03-11, 207.24
11-03-11, 140.74
12-03-11, 145.79
13-03-11, 140.47
14-03-11, 126.01
15-03-11, 92.63
16-03-11, 89.67
17-03-11, 79.90
18-03-11, 127.97
19-03-11, 119.51
20-03-11, 224.41
21-03-11, 128.31
22-03-11, 203.80
23-03-11, 222.26
24-03-11, 237.87
25-03-11, 320.41
26-03-11, 301.62
27-03-11, 166.86
28-03-11, 137.30
29-03-11, 143.18
30-03-11, 141.29
31-03-11, 149.95
01-04-11, 106.62
02-04-11, 199.47
03-04-11, 156.23
04-04-11, 141.82
05-04-11, 157.24
06-04-11, 194.65
07-04-11, 207.76
08-04-11, 228.50
09-04-11, 184.67
10-04-11, 256.38
11-04-11, 265.17
12-04-11, 261.16
13-04-11, 387.64
14-04-11, 281.43
15-04-11, 309.15
16-04-11, 493.76
17-04-11, 324.19
18-04-11, 273.21
19-04-11, 310.97
20-04-11, 339.78
21-04-11, 424.01
22-04-11, 507.30
23-04-11, 586.34
24-04-11, 348.71
25-04-11, 340.10
26-04-11, 363.96
27-04-11, 459.63
28-04-11, 426.44
29-04-11, 377.47
30-04-11, 322.89
01-05-11, 304.09
02-05-11, 298.03
03-05-11, 239.51
04-05-11, 219.55
05-05-11, 211.01
06-05-11, 203.17
07-05-11, 278.62
08-05-11, 208.83
09-05-11, 199.13
10-05-11, 201.13
11-05-11, 222.08
12-05-11, 202.67
13-05-11, 223.12
14-05-11, 402.77
15-05-11, 276.69
16-05-11, 227.58
17-05-11, 235.52
18-05-11, 237.63
19-05-11, 195.19
20-05-11, 167.41
21-05-11, 231.15
22-05-11, 420.19
23-05-11, 312.79
24-05-11, 249.14
25-05-11, 325.56
26-05-11, 236.89
27-05-11, 184.72
28-05-11, 190.67
29-05-11, 159.19
30-05-11, 137.74
31-05-11, 148.96
01-06-11, 251.84
02-06-11, 594.90
03-06-11, 362.62
04-06-11, 243.04
05-06-11, 260.75
06-06-11, 287.12
07-06-11, 261.37
08-06-11, 232.73
09-06-11, 234.10
10-06-11, 212.45
11-06-11, 198.04
12-06-11, 169.12
13-06-11, 146.01
14-06-11, 145.91
15-06-11, 122.26
16-06-11, 132.29
17-06-11, 212.38
18-06-11, 206.03
19-06-11, 134.38
20-06-11, 154.96
21-06-11, 165.19
22-06-11, 132.70
23-06-11, 295.88
24-06-11, 361.91
25-06-11, 399.45
26-06-11, 338.56
27-06-11, 307.63
28-06-11, 171.73
29-06-11, 183.34
30-06-11, 187.90
01-07-11, 191.23
02-07-11, 163.11
03-07-11, 265.72
04-07-11, 186.02
05-07-11, 141.83
06-07-11, 137.78
07-07-11, 124.90
08-07-11, 130.71
09-07-11, 142.76
10-07-11, 126.63
11-07-11, 125.69
12-07-11, 160.26
13-07-11, 388.58
14-07-11, 538.23
15-07-11, 331.86
16-07-11, 250.86
17-07-11, 157.22
18-07-11, 320.37
19-07-11, 237.32
20-07-11, 219.51
21-07-11, 174.91
22-07-11, 163.63
23-07-11, 141.71
24-07-11, 144.25
25-07-11, 136.37
26-07-11, 135.69
27-07-11, 141.31
28-07-11, 155.13
29-07-11, 323.59
30-07-11, 309.77
31-07-11, 173.51
01-08-11, 251.40
02-08-11, 218.04
03-08-11, 255.12
04-08-11, 206.09
05-08-11, 185.34
06-08-11, 175.34
07-08-11, 153.72
08-08-11, 148.66
09-08-11, 154.00
10-08-11, 141.53
11-08-11, 146.16
12-08-11, 247.61
13-08-11, 201.42
14-08-11, 197.53
15-08-11, 243.72
16-08-11, 308.53
17-08-11, 375.75
18-08-11, 264.98
19-08-11, 328.89
20-08-11, 242.75
21-08-11, 183.83
22-08-11, 234.99
23-08-11, 285.12
24-08-11, 416.93
25-08-11, 187.52
26-08-11, 148.89
27-08-11, 203.92
28-08-11, 251.86
29-08-11, 201.10
30-08-11, 164.16
31-08-11, 152.87
01-09-11, 105.07
02-09-11, 122.19
03-09-11, 139.29
04-09-11, 113.70
05-09-11, 114.88
06-09-11, 117.42
07-09-11, 177.10
08-09-11, 148.05
09-09-11, 273.25
10-09-11, 191.51
11-09-11, 253.48
12-09-11, 159.01
13-09-11, 132.72
14-09-11, 134.32
15-09-11, 158.20
16-09-11, 171.19
17-09-11, 150.15
18-09-11, 333.26
19-09-11, 215.95
20-09-11, 392.06
21-09-11, 209.49
22-09-11, 188.52
23-09-11, 158.56
24-09-11, 178.67
25-09-11, 207.45
26-09-11, 215.14
27-09-11, 149.56
28-09-11, 178.59
29-09-11, 169.63
30-09-11, 163.40
01-10-11, 147.73
02-10-11, 156.58
03-10-11, 118.48
04-10-11, 169.66
05-10-11, 234.87
06-10-11, 196.17
07-10-11, 425.73
08-10-11, 224.81
09-10-11, 202.51
10-10-11, 376.24
11-10-11, 209.06
12-10-11, 252.52
13-10-11, 268.35
14-10-11, 350.35
15-10-11, 478.44
16-10-11, 333.55
17-10-11, 471.85
18-10-11, 384.16
19-10-11, 392.95
20-10-11, 271.61
21-10-11, 251.23
22-10-11, 280.34
23-10-11, 285.28
24-10-11, 224.60
25-10-11, 227.37
26-10-11, 214.75
27-10-11, 340.20
28-10-11, 248.24
29-10-11, 272.27
30-10-11, 402.78
31-10-11, 263.88
01-11-11, 204.19
02-11-11, 185.28
03-11-11, 184.17
04-11-11, 210.24
05-11-11, 210.22
06-11-11, 311.89
07-11-11, 208.40
08-11-11, 226.27
09-11-11, 191.32
10-11-11, 173.13
11-11-11, 162.03
12-11-11, 179.09
13-11-11, 248.90
14-11-11, 280.07
15-11-11, 284.06
16-11-11, 245.36
17-11-11, 242.55
18-11-11, 493.59
19-11-11, 483.86
20-11-11, 305.39
21-11-11, 323.60
22-11-11, 262.06
23-11-11, 272.73
24-11-11, 493.32
25-11-11, 317.07
26-11-11, 298.87
27-11-11, 301.65
28-11-11, 305.70
29-11-11, 367.00
30-11-11, 350.67
01-12-11, 260.35
02-12-11, 229.45
03-12-11, 237.65
04-12-11, 216.30
05-12-11, 299.63
06-12-11, 262.34
07-12-11, 245.44
08-12-11, 443.98
09-12-11, 238.93
10-12-11, 221.32
11-12-11, 281.30
12-12-11, 299.98
13-12-11, 280.31
14-12-11, 239.42
15-12-11, 313.91
16-12-11, 293.71
17-12-11, 234.42
18-12-11, 228.46
19-12-11, 255.29
20-12-11, 228.28
21-12-11, 200.63
22-12-11, 171.29
23-12-11, 174.53
24-12-11, 148.93
25-12-11, 147.24
26-12-11, 156.35
27-12-11, 192.44
28-12-11, 139.21
29-12-11, 158.43
30-12-11, 137.49
31-12-11, 155.53
01-01-12, 132.21
02-01-12, 125.95
03-01-12, 233.84
04-01-12, 152.74
05-01-12, 147.19
06-01-12, 206.48
07-01-12, 130.77
08-01-12, 109.23
09-01-12, 123.56
10-01-12, 115.68
11-01-12, 107.75
12-01-12, 112.79
13-01-12, 109.89
14-01-12, 144.03
15-01-12, 131.37
16-01-12, 118.46
17-01-12, 144.17
18-01-12, 215.89
19-01-12, 158.02
20-01-12, 125.76
21-01-12, 134.07
22-01-12, 148.96
23-01-12, 110.96
24-01-12, 114.33
25-01-12, 102.57
26-01-12, 115.18
27-01-12, 105.82
28-01-12, 93.14
29-01-12, 86.28
30-01-12, 92.67
31-01-12, 123.63
01-02-12, 98.99
02-02-12, 91.61
03-02-12, 85.18
04-02-12, 73.34
05-02-12, 94.18
06-02-12, 135.09
07-02-12, 101.43
08-02-12, 106.99
09-02-12, 86.71
10-02-12, 80.07
11-02-12, 118.91
12-02-12, 103.89
13-02-12, 84.35
14-02-12, 75.18
15-02-12, 69.98
16-02-12, 89.61
17-02-12, 76.66
18-02-12, 80.07
19-02-12, 72.81
20-02-12, 68.12
21-02-12, 49.87
22-02-12, 55.88
23-02-12, 61.01
24-02-12, 98.79
25-02-12, 81.87
26-02-12, 91.32
27-02-12, 56.27
28-02-12, 81.52
29-02-12, 64.75
01-03-12, 100.60
02-03-12, 64.47
03-03-12, 123.21
04-03-12, 123.24
05-03-12, 121.20
06-03-12, 67.78
07-03-12, 93.49
08-03-12, 102.35
09-03-12, 109.78
10-03-12, 89.46
11-03-12, 117.32
12-03-12, 88.73
13-03-12, 124.02
14-03-12, 46.56
15-03-12, 56.99
16-03-12, 135.00
17-03-12, 113.15
18-03-12, 110.75
19-03-12, 122.61
20-03-12, 142.15
21-03-12, 136.69
22-03-12, 123.77
23-03-12, 107.89
24-03-12, 130.94
25-03-12, 89.56
26-03-12, 132.72
27-03-12, 107.39
28-03-12, 141.33
29-03-12, 56.83
30-03-12, 124.32
31-03-12, 123.45
01-04-12, 83.75
02-04-12, 105.43
03-04-12, 126.99
04-04-12, 104.17
05-04-12, 167.51
06-04-12, 59.74
07-04-12, 166.70
08-04-12, 187.17
09-04-12, 200.70
10-04-12, 260.32
11-04-12, 261.24
12-04-12, 369.69
13-04-12, 247.65
14-04-12, 245.33
15-04-12, 177.29
16-04-12, 202.57
17-04-12, 207.18
18-04-12, 206.93
19-04-12, 316.63
20-04-12, 213.58
21-04-12, 255.86
22-04-12, 238.69
23-04-12, 177.82
24-04-12, 200.56
25-04-12, 224.67
26-04-12, 223.13
27-04-12, 212.35
28-04-12, 252.38
29-04-12, 172.85
30-04-12, 140.98
01-05-12, 532.46
02-05-12, 476.78
03-05-12, 398.90
04-05-12, 285.19
05-05-12, 259.87
06-05-12, 342.29
07-05-12, 395.56
08-05-12, 325.32
09-05-12, 429.50
10-05-12, 296.24
11-05-12, 271.36
12-05-12, 405.29
13-05-12, 434.45
14-05-12, 327.05
15-05-12, 195.94
16-05-12, 199.87
17-05-12, 165.88
18-05-12, 269.43
19-05-12, 212.47
20-05-12, 309.15
21-05-12, 241.29
22-05-12, 403.30
23-05-12, 472.81
24-05-12, 308.88
25-05-12, 245.38
26-05-12, 467.16
27-05-12, 229.00
28-05-12, 183.50
29-05-12, 150.82
30-05-12, 139.92
31-05-12, 133.75
01-06-12, 128.39
02-06-12, 134.81
03-06-12, 133.85
04-06-12, 129.36
05-06-12, 129.99
06-06-12, 116.75
07-06-12, 198.77
08-06-12, 202.61
09-06-12, 118.00
10-06-12, 124.24
11-06-12, 100.71
12-06-12, 98.96
13-06-12, 122.47
14-06-12, 144.54
15-06-12, 223.73
16-06-12, 285.79
17-06-12, 140.17
18-06-12, 154.82
19-06-12, 113.22
20-06-12, 101.91
21-06-12, 159.07
22-06-12, 134.60
23-06-12, 113.63
24-06-12, 79.85
25-06-12, 94.73
26-06-12, 64.88
27-06-12, 137.92
28-06-12, 242.02
29-06-12, 160.93
30-06-12, 146.79
01-07-12, 389.82
02-07-12, 130.84
03-07-12, 136.88
04-07-12, 170.59
05-07-12, 222.35
06-07-12, 239.42
07-07-12, 114.95
08-07-12, 114.35
09-07-12, 97.67
10-07-12, 97.34
11-07-12, 144.99
12-07-12, 216.46
13-07-12, 170.53
14-07-12, 165.64
15-07-12, 187.31
16-07-12, 119.13
17-07-12, 104.71
18-07-12, 119.20
19-07-12, 107.70
20-07-12, 102.14
21-07-12, 97.11
22-07-12, 97.61
23-07-12, 88.15
24-07-12, 89.48
25-07-12, 72.16
26-07-12, 86.21
27-07-12, 58.99
28-07-12, 114.27
29-07-12, 94.58
30-07-12, 108.21
31-07-12, 124.34
01-08-12, 88.74
02-08-12, 90.94
03-08-12, 82.12
04-08-12, 118.26
05-08-12, 171.47
06-08-12, 155.96
07-08-12, 114.54
08-08-12, 86.00
09-08-12, 100.27
10-08-12, 67.71
11-08-12, 49.14
12-08-12, 63.37
13-08-12, 204.38
14-08-12, 261.94
15-08-12, 319.24
16-08-12, 102.97
17-08-12, 176.48
18-08-12, 182.30
19-08-12, 289.29
20-08-12, 294.67
21-08-12, 150.04
22-08-12, 127.72
23-08-12, 282.27
24-08-12, 189.68
25-08-12, 182.45
26-08-12, 419.26
27-08-12, 169.52
28-08-12, 116.27
29-08-12, 116.38
30-08-12, 133.81
31-08-12, 86.60
01-09-12, 89.69
02-09-12, 60.91
03-09-12, 62.19
04-09-12, 57.68
05-09-12, 60.70
06-09-12, 106.37
07-09-12, 84.85
08-09-12, 92.42
09-09-12, 51.70
10-09-12, 105.76
11-09-12, 70.60
12-09-12, 58.51
13-09-12, 72.24
14-09-12, 54.28
15-09-12, 96.80
16-09-12, 90.45
17-09-12, 41.44
18-09-12, 143.03
19-09-12, 84.31
20-09-12, 119.24
21-09-12, 119.21
22-09-12, 120.92
23-09-12, 68.18
24-09-12, 97.49
25-09-12, 118.82
26-09-12, 41.65
27-09-12, 86.83
28-09-12, 75.76
29-09-12, 119.63
30-09-12, 110.38
01-10-12, 39.65
02-10-12, 79.07
03-10-12, 109.28
04-10-12, 70.53
05-10-12, 150.82
06-10-12, 145.21
07-10-12, 140.14
08-10-12, 50.59
09-10-12, 107.78
10-10-12, 68.86
11-10-12, 73.15
12-10-12, 116.14
13-10-12, 211.20
14-10-12, 133.54
15-10-12, 133.92
16-10-12, 188.53
17-10-12, 150.43
18-10-12, 320.18
19-10-12, 241.25
20-10-12, 212.21
21-10-12, 253.49
22-10-12, 342.32
23-10-12, 169.32
24-10-12, 150.24
25-10-12, 314.69
26-10-12, 159.27
27-10-12, 119.54
28-10-12, 96.93
29-10-12, 124.13
30-10-12, 195.41
31-10-12, 187.37
01-11-12, 169.52
02-11-12, 125.94
03-11-12, 77.08
04-11-12, 103.94
05-11-12, 115.48
06-11-12, 60.70
07-11-12, 127.93
08-11-12, 114.72
09-11-12, 69.59
10-11-12, 99.76
11-11-12, 124.06
12-11-12, 109.12
13-11-12, 80.57
14-11-12, 161.38
15-11-12, 194.91
16-11-12, 238.22
17-11-12, 195.54
18-11-12, 276.73
19-11-12, 182.72
20-11-12, 106.51
21-11-12, 95.80
22-11-12, 74.63
23-11-12, 150.33
24-11-12, 133.60
25-11-12, 86.12
26-11-12, 104.93
27-11-12, 130.10
28-11-12, 95.25
29-11-12, 128.91
30-11-12, 110.77
01-12-12, 144.24
02-12-12, 160.71
03-12-12, 164.76
04-12-12, 93.55
05-12-12, 143.24
06-12-12, 92.07
07-12-12, 104.09
08-12-12, 99.58
09-12-12, 64.96
10-12-12, 107.49
11-12-12, 79.43
12-12-12, 66.52
13-12-12, 64.09
14-12-12, 124.99
15-12-12, 132.37
16-12-12, 101.89
17-12-12, 51.99
18-12-12, 46.23
19-12-12, 113.05
20-12-12, 67.86
21-12-12, 93.49
22-12-12, 43.88
23-12-12, 79.05
24-12-12, 94.20
25-12-12, 85.23
26-12-12, 58.75
27-12-12, 87.56
28-12-12, 82.05
29-12-12, 69.55
30-12-12, 73.90
31-12-12, 79.74
01-01-13, 97.31
02-01-13, 41.38
03-01-13, 48.71
04-01-13, 78.67
05-01-13, 77.27
06-01-13, 40.24
07-01-13, 31.60
08-01-13, 62.81
09-01-13, 77.98
10-01-13, 69.25
11-01-13, 77.96
12-01-13, 61.25
13-01-13, 66.53
14-01-13, 44.28
15-01-13, 43.94
16-01-13, 63.24
17-01-13, 78.40
18-01-13, 50.24
19-01-13, 79.43
20-01-13, 60.10
21-01-13, 42.40
22-01-13, 38.77
23-01-13, 90.37
24-01-13, 41.57
25-01-13, 59.17
26-01-13, 96.49
27-01-13, 80.09
28-01-13, 41.58
29-01-13, 77.15
30-01-13, 74.30
31-01-13, 67.01
01-02-13, 71.90
02-02-13, 51.52
03-02-13, 111.75
04-02-13, 57.33
05-02-13, 89.43
06-02-13, 73.47
07-02-13, 68.14
08-02-13, 87.31
09-02-13, 95.44
10-02-13, 94.80
11-02-13, 64.19
12-02-13, 55.25
13-02-13, 83.22
14-02-13, 85.12
15-02-13, 64.84
16-02-13, 52.09
17-02-13, 71.10
18-02-13, 45.20
19-02-13, 42.34
20-02-13, 69.88
21-02-13, 62.98
22-02-13, 49.60
23-02-13, 83.47
24-02-13, 65.49
25-02-13, 57.20
26-02-13, 85.48
27-02-13, 71.73
28-02-13, 49.85
01-03-13, 139.69
02-03-13, 71.05
03-03-13, 154.00
04-03-13, 52.94
05-03-13, 70.31
06-03-13, 54.82
07-03-13, 64.26
08-03-13, 88.73
09-03-13, 62.96
10-03-13, 68.17
11-03-13, 36.00
12-03-13, 65.29
13-03-13, 61.54
14-03-13, 98.47
15-03-13, 53.58
16-03-13, 106.35
17-03-13, 66.98
18-03-13, 107.75
19-03-13, 93.85
20-03-13, 63.01
21-03-13, 86.22
22-03-13, 133.44
23-03-13, 105.41
24-03-13, 73.03
25-03-13, 72.76
26-03-13, 57.58
27-03-13, 61.03
28-03-13, 74.30
29-03-13, 62.86
30-03-13, 69.89
31-03-13, 64.38
01-04-13, 56.78
02-04-13, 56.76
03-04-13, 70.54
04-04-13, 51.42
05-04-13, 77.16
06-04-13, 78.24
07-04-13, 58.02
08-04-13, 49.49
09-04-13, 48.60
10-04-13, 68.84
11-04-13, 70.89
12-04-13, 46.69
13-04-13, 89.19
14-04-13, 64.71
15-04-13, 48.01
16-04-13, 75.71
17-04-13, 67.95
18-04-13, 87.47
19-04-13, 82.92
20-04-13, 118.33
21-04-13, 127.09
22-04-13, 93.71
23-04-13, 93.13
24-04-13, 112.09
25-04-13, 96.06
26-04-13, 92.13
27-04-13, 192.97
28-04-13, 116.99
29-04-13, 88.11
30-04-13, 137.97
01-05-13, 127.63
02-05-13, 135.36
03-05-13, 89.73
04-05-13, 147.05
05-05-13, 256.20
06-05-13, 215.33
07-05-13, 124.85
08-05-13, 122.06
09-05-13, 134.26
10-05-13, 162.47
11-05-13, 127.25
12-05-13, 81.66
13-05-13, 161.54
14-05-13, 75.27
15-05-13, 189.48
16-05-13, 134.12
17-05-13, 301.85
18-05-13, 126.98
19-05-13, 128.82
20-05-13, 211.54
21-05-13, 203.51
22-05-13, 374.53
23-05-13, 364.90
24-05-13, 435.81
25-05-13, 235.88
26-05-13, 158.84
27-05-13, 130.72
28-05-13, 120.89
29-05-13, 175.74
30-05-13, 206.39
31-05-13, 214.61
01-06-13, 163.61
02-06-13, 135.22
03-06-13, 110.68
04-06-13, 116.00
05-06-13, 96.52
06-06-13, 97.71
07-06-13, 46.13
08-06-13, 133.50
09-06-13, 68.98
10-06-13, 104.34
11-06-13, 62.80
12-06-13, 276.48
13-06-13, 246.31
14-06-13, 107.22
15-06-13, 177.44
16-06-13, 341.26
17-06-13, 121.83
18-06-13, 161.45
19-06-13, 155.19
20-06-13, 146.43
21-06-13, 199.66
22-06-13, 101.47
23-06-13, 97.02
24-06-13, 255.21
25-06-13, 253.65
26-06-13, 113.61
27-06-13, 117.99
28-06-13, 195.69
29-06-13, 140.95
30-06-13, 131.62
01-07-13, 178.15
02-07-13, 125.38
03-07-13, 105.05
04-07-13, 76.87
05-07-13, 73.14
06-07-13, 128.80
07-07-13, 90.99
08-07-13, 127.90
09-07-13, 135.53
10-07-13, 81.04
11-07-13, 86.39
12-07-13, 86.91
13-07-13, 98.59
14-07-13, 101.77
15-07-13, 43.40
16-07-13, 53.62
17-07-13, 177.51
18-07-13, 53.64
19-07-13, 81.58
20-07-13, 143.68
21-07-13, 88.61
22-07-13, 49.77
23-07-13, 116.86
24-07-13, 68.72
25-07-13, 52.12
26-07-13, 61.59
27-07-13, 91.25
28-07-13, 60.23
29-07-13, 58.48
30-07-13, 42.19
31-07-13, 78.11
01-08-13, 170.52
02-08-13, 139.92
03-08-13, 137.28
04-08-13, 133.31
05-08-13, 77.34
06-08-13, 67.19
07-08-13, 65.86
08-08-13, 108.03
09-08-13, 162.73
10-08-13, 205.21
11-08-13, 217.03
12-08-13, 106.89
13-08-13, 324.78
14-08-13, 135.34
15-08-13, 60.93
16-08-13, 77.56
17-08-13, 105.38
18-08-13, 250.99
19-08-13, 159.27
20-08-13, 257.31
21-08-13, 229.80
22-08-13, 281.27
23-08-13, 115.27
24-08-13, 155.59
25-08-13, 138.68
26-08-13, 173.66
27-08-13, 203.07
28-08-13, 110.49
29-08-13, 244.32
30-08-13, 87.27
31-08-13, 114.40
01-09-13, 237.58
02-09-13, 139.66
03-09-13, 148.15
04-09-13, 141.66
05-09-13, 71.20
06-09-13, 404.75
07-09-13, 272.36
08-09-13, 144.48
09-09-13, 120.10
10-09-13, 121.21
11-09-13, 150.49
12-09-13, 171.37
13-09-13, 145.12
14-09-13, 98.62
15-09-13, 181.88
16-09-13, 91.65
17-09-13, 123.10
18-09-13, 169.06
19-09-13, 57.24
20-09-13, 76.59
21-09-13, 131.58
22-09-13, 121.18
23-09-13, 40.88
24-09-13, 150.39
25-09-13, 109.37
26-09-13, 75.83
27-09-13, 111.73
28-09-13, 161.31
29-09-13, 171.13
30-09-13, 167.82
01-10-13, 195.14
02-10-13, 74.29
03-10-13, 126.84
04-10-13, 349.20
05-10-13, 167.78
06-10-13, 107.67
07-10-13, 86.72
08-10-13, 187.91
09-10-13, 97.27
10-10-13, 150.09
11-10-13, 132.94
12-10-13, 143.05
13-10-13, 211.53
14-10-13, 210.09
15-10-13, 145.32
16-10-13, 133.45
17-10-13, 166.75
18-10-13, 96.86
19-10-13, 123.99
20-10-13, 127.91
21-10-13, 128.74
22-10-13, 235.86
23-10-13, 182.20
24-10-13, 153.26
25-10-13, 135.58
26-10-13, 106.98
27-10-13, 112.18
28-10-13, 89.29
29-10-13, 78.01
30-10-13, 146.35
31-10-13, 115.47
01-11-13, 68.18
02-11-13, 167.62
03-11-13, 120.30
04-11-13, 184.94
05-11-13, 310.07
06-11-13, 168.81
07-11-13, 355.26
08-11-13, 178.38
09-11-13, 163.85
10-11-13, 153.85
11-11-13, 104.72
12-11-13, 121.27
13-11-13, 215.98
14-11-13, 179.59
15-11-13, 150.84
16-11-13, 104.75
17-11-13, 135.89
18-11-13, 95.01
19-11-13, 192.08
20-11-13, 227.69
21-11-13, 140.28
22-11-13, 124.33
23-11-13, 132.91
24-11-13, 191.00
25-11-13, 137.16
26-11-13, 188.58
27-11-13, 94.80
28-11-13, 70.02
29-11-13, 93.66
30-11-13, 102.44
01-12-13, 173.33
02-12-13, 187.89
03-12-13, 179.75
04-12-13, 98.81
05-12-13, 161.13
06-12-13, 124.68
07-12-13, 126.18
08-12-13, 124.63
09-12-13, 156.28
10-12-13, 131.81
11-12-13, 113.69
12-12-13, 114.92
13-12-13, 112.31
14-12-13, 111.17
15-12-13, 118.74
16-12-13, 106.88
17-12-13, 104.73
18-12-13, 92.66
19-12-13, 110.66
20-12-13, 126.86
21-12-13, 106.99
22-12-13, 96.34
23-12-13, 168.34
24-12-13, 174.04
25-12-13, 78.64
26-12-13, 103.61
27-12-13, 88.20
28-12-13, 127.32
29-12-13, 93.92
30-12-13, 40.54
31-12-13, 99.46
01-01-14, 90.52
02-01-14, 55.33
03-01-14, 117.03
04-01-14, 79.43
05-01-14, 99.29
06-01-14, 136.93
07-01-14, 127.91
08-01-14, 114.17
09-01-14, 93.41
10-01-14, 74.86
11-01-14, 88.94
12-01-14, 127.75
13-01-14, 87.09
14-01-14, 84.04
15-01-14, 76.51
16-01-14, 63.04
17-01-14, 87.93
18-01-14, 90.32
19-01-14, 64.51
20-01-14, 57.56
21-01-14, 83.33
22-01-14, 58.10
23-01-14, 101.89
24-01-14, 100.57
25-01-14, 76.63
26-01-14, 107.81
27-01-14, 55.02
28-01-14, 75.13
29-01-14, 93.92
30-01-14, 71.65
31-01-14, 103.74
01-02-14, 85.81
02-02-14, 83.54
03-02-14, 53.53
04-02-14, 77.26
05-02-14, 79.36
06-02-14, 117.99
07-02-14, 85.41
08-02-14, 71.81
09-02-14, 86.80
10-02-14, 150.09
11-02-14, 121.27
12-02-14, 69.08
13-02-14, 91.47
14-02-14, 93.47
15-02-14, 65.56
16-02-14, 61.23
17-02-14, 53.09
18-02-14, 89.76
19-02-14, 59.18
20-02-14, 94.44
21-02-14, 61.11
22-02-14, 121.64
23-02-14, 87.41
24-02-14, 74.93
25-02-14, 115.72
26-02-14, 101.56
27-02-14, 169.42
28-02-14, 204.37
01-03-14, 53.75
02-03-14, 54.15
03-03-14, 113.57
04-03-14, 129.23
05-03-14, 109.91
06-03-14, 87.36
07-03-14, 123.48
08-03-14, 133.87
09-03-14, 141.53
10-03-14, 77.37
11-03-14, 70.23
12-03-14, 117.74
13-03-14, 99.81
14-03-14, 82.22
15-03-14, 105.05
16-03-14, 113.59
17-03-14, 90.27
18-03-14, 78.46
19-03-14, 70.39
20-03-14, 96.22
21-03-14, 79.41
22-03-14, 76.44
23-03-14, 89.10
24-03-14, 62.26
25-03-14, 66.69
26-03-14, 110.95
27-03-14, 55.70
28-03-14, 57.05
29-03-14, 57.67
30-03-14, 39.42
31-03-14, 79.86
01-04-14, 61.76
02-04-14, 47.56
03-04-14, 95.22
04-04-14, 98.32
05-04-14, 61.47
06-04-14, 102.88
07-04-14, 62.48
08-04-14, 77.94
09-04-14, 61.24
10-04-14, 74.13
11-04-14, 59.87
12-04-14, 68.08
13-04-14, 75.28
14-04-14, 70.56
15-04-14, 78.60
16-04-14, 96.69
17-04-14, 104.85
18-04-14, 67.87
19-04-14, 138.93
20-04-14, 139.08
21-04-14, 76.43
22-04-14, 132.53
23-04-14, 82.27
24-04-14, 349.81
25-04-14, 121.80
26-04-14, 321.60
27-04-14, 190.74
28-04-14, 99.16
29-04-14, 90.88
30-04-14, 85.78
01-05-14, 126.04
02-05-14, 112.19
03-05-14, 105.15
04-05-14, 83.48
05-05-14, 80.06
06-05-14, 106.26
07-05-14, 119.16
08-05-14, 120.67
09-05-14, 226.36
10-05-14, 248.38
11-05-14, 296.77
12-05-14, 153.22
13-05-14, 205.58
14-05-14, 129.17
15-05-14, 145.94
16-05-14, 119.84
17-05-14, 214.75
18-05-14, 161.52
19-05-14, 116.44
20-05-14, 97.81
21-05-14, 138.08
22-05-14, 112.11
23-05-14, 127.01
24-05-14, 163.15
25-05-14, 97.93
26-05-14, 98.82
27-05-14, 82.76
28-05-14, 153.27
29-05-14, 135.09
30-05-14, 128.69
31-05-14, 152.17
01-06-14, 134.14
02-06-14, 124.47
03-06-14, 135.42
04-06-14, 131.18
05-06-14, 88.72
06-06-14, 119.95
07-06-14, 278.06
08-06-14, 287.80
09-06-14, 124.65
10-06-14, 195.81
11-06-14, 122.22
12-06-14, 145.90
13-06-14, 110.98
14-06-14, 184.37
15-06-14, 385.24
16-06-14, 108.21
17-06-14, 106.29
18-06-14, 88.27
19-06-14, 75.50
20-06-14, 88.23
21-06-14, 104.67
22-06-14, 58.48
23-06-14, 101.44
24-06-14, 121.30
25-06-14, 182.76
26-06-14, 195.67
27-06-14, 162.91
28-06-14, 101.99
29-06-14, 91.12
30-06-14, 87.64
01-07-14, 89.73
02-07-14, 138.63
03-07-14, 121.73
04-07-14, 98.26
05-07-14, 165.43
06-07-14, 135.90
07-07-14, 164.20
08-07-14, 158.09
09-07-14, 101.97
10-07-14, 70.37
11-07-14, 94.87
12-07-14, 74.47
13-07-14, 72.63
14-07-14, 74.45
15-07-14, 54.90
16-07-14, 73.62
17-07-14, 79.91
18-07-14, 68.87
19-07-14, 50.05
20-07-14, 76.81
21-07-14, 55.30
22-07-14, 63.61
23-07-14, 72.30
24-07-14, 57.63
25-07-14, 52.69
26-07-14, 76.08
27-07-14, 101.47
28-07-14, 52.92
29-07-14, 58.09
30-07-14, 47.49
31-07-14, 73.35
01-08-14, 52.14
02-08-14, 78.46
03-08-14, 89.92
04-08-14, 57.29
05-08-14, 51.49
06-08-14, 133.18
07-08-14, 216.33
08-08-14, 153.96
09-08-14, 164.86
10-08-14, 197.12
11-08-14, 153.20
12-08-14, 143.25
13-08-14, 132.84
14-08-14, 113.38
15-08-14, 89.42
16-08-14, 74.03
17-08-14, 72.64
18-08-14, 78.32
19-08-14, 57.46
20-08-14, 79.93
21-08-14, 61.92
22-08-14, 70.48
23-08-14, 147.80
24-08-14, 107.38
25-08-14, 80.47
26-08-14, 112.39
27-08-14, 120.89
28-08-14, 173.46
29-08-14, 96.27
30-08-14, 84.32
31-08-14, 88.94
01-09-14, 55.75
02-09-14, 83.69
03-09-14, 48.55
04-09-14, 306.23
05-09-14, 67.49
06-09-14, 72.69
07-09-14, 80.47
08-09-14, 57.68
09-09-14, 66.11
10-09-14, 74.54
11-09-14, 125.51
12-09-14, 170.02
13-09-14, 221.93
14-09-14, 197.79
15-09-14, 207.63
16-09-14, 152.02
17-09-14, 140.59
18-09-14, 109.45
19-09-14, 82.84
20-09-14, 153.04
21-09-14, 141.23
22-09-14, 132.39
23-09-14, 110.00
24-09-14, 123.42
25-09-14, 106.17
26-09-14, 128.21
27-09-14, 132.37
28-09-14, 111.77
29-09-14, 87.50
30-09-14, 64.17
01-10-14, 93.93
02-10-14, 55.42
03-10-14, 101.10
04-10-14, 57.45
05-10-14, 86.68
06-10-14, 127.33
07-10-14, 291.23
08-10-14, 217.20
09-10-14, 304.98
10-10-14, 211.84
11-10-14, 138.26
12-10-14, 226.40
13-10-14, 248.78
14-10-14, 205.35
15-10-14, 165.96
16-10-14, 161.07
17-10-14, 113.50
18-10-14, 213.81
19-10-14, 186.42
20-10-14, 117.49
21-10-14, 123.87
22-10-14, 171.29
23-10-14, 217.35
24-10-14, 189.96
25-10-14, 140.91
26-10-14, 185.46
27-10-14, 149.96
28-10-14, 117.48
29-10-14, 151.62
30-10-14, 184.35
31-10-14, 220.96
01-11-14, 153.41
02-11-14, 118.21
03-11-14, 100.07
04-11-14, 121.88
05-11-14, 151.95
06-11-14, 169.29
07-11-14, 261.46
08-11-14, 241.81
09-11-14, 169.80
10-11-14, 310.55
11-11-14, 234.70
12-11-14, 267.23
13-11-14, 264.48
14-11-14, 196.14
15-11-14, 158.50
16-11-14, 131.83
17-11-14, 159.91
18-11-14, 131.71
19-11-14, 133.31
20-11-14, 99.91
21-11-14, 148.73
22-11-14, 118.25
23-11-14, 171.21
24-11-14, 109.67
25-11-14, 143.95
26-11-14, 112.28
27-11-14, 103.73
28-11-14, 122.37
29-11-14, 98.77
30-11-14, 113.98
01-12-14, 161.67
02-12-14, 134.42
03-12-14, 88.73
04-12-14, 85.18
05-12-14, 113.59
06-12-14, 107.36
07-12-14, 136.01
08-12-14, 139.19
09-12-14, 165.33
10-12-14, 158.88
11-12-14, 188.79
12-12-14, 123.81
13-12-14, 142.44
14-12-14, 157.95
15-12-14, 130.74
16-12-14, 104.16
17-12-14, 98.93
18-12-14, 96.37
19-12-14, 99.29
20-12-14, 97.24
21-12-14, 85.03
22-12-14, 88.13
23-12-14, 89.85
24-12-14, 88.65
25-12-14, 80.34
26-12-14, 84.99
27-12-14, 78.91
28-12-14, 62.14
29-12-14, 75.82
30-12-14, 76.07
31-12-14, 89.77
01-01-15, 71.97
02-01-15, 44.96
03-01-15, 77.95
04-01-15, 76.21
05-01-15, 54.42
06-01-15, 85.35
07-01-15, 65.38
08-01-15, 56.28
09-01-15, 72.70
10-01-15, 58.68
11-01-15, 71.92
12-01-15, 53.64
13-01-15, 77.38
14-01-15, 40.65
15-01-15, 72.33
16-01-15, 60.83
17-01-15, 72.35
18-01-15, 63.02
19-01-15, 69.50
20-01-15, 60.83
21-01-15, 75.84
22-01-15, 86.81
23-01-15, 185.73
24-01-15, 95.12
25-01-15, 65.69
26-01-15, 64.90
27-01-15, 43.38
28-01-15, 68.17
29-01-15, 63.30
30-01-15, 66.55
31-01-15, 77.74
01-02-15, 116.31
02-02-15, 78.60
03-02-15, 63.16
04-02-15, 56.38
05-02-15, 65.89
06-02-15, 71.33
07-02-15, 64.96
08-02-15, 110.42
09-02-15, 98.42
10-02-15, 130.09
11-02-15, 120.06
12-02-15, 91.71
13-02-15, 144.04
14-02-15, 98.15
15-02-15, 75.12
16-02-15, 86.18
17-02-15, 67.35
18-02-15, 45.41
19-02-15, 70.18
20-02-15, 54.13
21-02-15, 78.36
22-02-15, 54.04
23-02-15, 59.13
24-02-15, 66.81
25-02-15, 54.45
26-02-15, 61.14
27-02-15, 73.86
28-02-15, 76.92
01-03-15, 42.97
02-03-15, 60.72
03-03-15, 54.85
04-03-15, 56.52
05-03-15, 57.77
06-03-15, 57.87
07-03-15, 77.99
08-03-15, 52.46
09-03-15, 34.34
10-03-15, 73.24
11-03-15, 73.38
12-03-15, 44.11
13-03-15, 104.82
14-03-15, 67.44
15-03-15, 59.95
16-03-15, 30.20
17-03-15, 63.13
18-03-15, 77.54
19-03-15, 125.10
20-03-15, 96.28
21-03-15, 115.17
22-03-15, 111.82
23-03-15, 74.70
24-03-15, 42.79
25-03-15, 55.67
26-03-15, 62.61
27-03-15, 38.19
28-03-15, 39.59
29-03-15, 83.71
30-03-15, 96.14
31-03-15, 101.40
01-04-15, 85.31
02-04-15, 63.61
03-04-15, 123.99
04-04-15, 105.00
05-04-15, 102.72
06-04-15, 72.45
07-04-15, 121.48
08-04-15, 180.80
09-04-15, 104.63
10-04-15, 90.33
11-04-15, 157.46
12-04-15, 78.71
13-04-15, 99.05
14-04-15, 121.38
15-04-15, 128.96
16-04-15, 204.45
17-04-15, 121.87
18-04-15, 164.59
19-04-15, 158.41
20-04-15, 141.72
21-04-15, 177.28
22-04-15, 125.29
23-04-15, 77.75
24-04-15, 96.31
25-04-15, 82.64
26-04-15, 74.37
27-04-15, 80.73
28-04-15, 79.93
29-04-15, 55.56
30-04-15, 69.75
01-05-15, 77.05
02-05-15, 64.71
03-05-15, 58.36
04-05-15, 103.02
05-05-15, 67.43
06-05-15, 43.99
07-05-15, 93.77
08-05-15, 133.89
09-05-15, 78.31
10-05-15, 62.19
11-05-15, 46.24
12-05-15, 57.76
13-05-15, 87.84
14-05-15, 50.73
15-05-15, 164.85
16-05-15, 219.29
17-05-15, 184.87
18-05-15, 167.59
19-05-15, 224.86
20-05-15, 100.44
21-05-15, 348.08
22-05-15, 200.24
23-05-15, 166.78
24-05-15, 148.21
25-05-15, 135.57
26-05-15, 110.02
27-05-15, 159.39
28-05-15, 162.30
29-05-15, 395.23
30-05-15, 422.26
31-05-15, 339.36
01-06-15, 168.46
02-06-15, 123.26
03-06-15, 113.61
04-06-15, 90.62
05-06-15, 70.99
06-06-15, 75.01
07-06-15, 135.17
08-06-15, 212.50
09-06-15, 238.76
10-06-15, 122.52
11-06-15, 174.39
12-06-15, 99.37
13-06-15, 110.64
14-06-15, 96.53
15-06-15, 133.95
16-06-15, 87.29
17-06-15, 79.24
18-06-15, 85.66
19-06-15, 82.78
20-06-15, 86.30
21-06-15, 78.78
22-06-15, 85.64
23-06-15, 86.91
24-06-15, 62.16
25-06-15, 61.56
26-06-15, 69.16
27-06-15, 74.44
28-06-15, 65.64
29-06-15, 54.32
30-06-15, 65.60
01-07-15, 68.53
02-07-15, 61.09
03-07-15, 65.21
04-07-15, 60.76
05-07-15, 55.71
06-07-15, 72.84
07-07-15, 82.80
08-07-15, 106.01
09-07-15, 97.73
10-07-15, 104.31
11-07-15, 64.36
12-07-15, 87.16
13-07-15, 53.25
14-07-15, 67.68
15-07-15, 176.90
16-07-15, 312.84
17-07-15, 115.64
18-07-15, 177.10
19-07-15, 189.72
20-07-15, 299.85
21-07-15, 275.99
22-07-15, 174.82
23-07-15, 152.05
24-07-15, 109.89
25-07-15, 87.73
26-07-15, 102.59
27-07-15, 77.39
28-07-15, 87.06
29-07-15, 126.41
30-07-15, 239.89
31-07-15, 101.62
01-08-15, 196.57
02-08-15, 102.79
03-08-15, 83.43
04-08-15, 67.89
05-08-15, 94.81
06-08-15, 82.30
07-08-15, 89.18
08-08-15, 61.96
09-08-15, 189.89
10-08-15, 103.91
11-08-15, 117.34
12-08-15, 58.43
13-08-15, 106.27
14-08-15, 133.64
15-08-15, 68.44
16-08-15, 102.09
17-08-15, 117.40
18-08-15, 207.90
19-08-15, 105.83
20-08-15, 133.81
21-08-15, 136.04
22-08-15, 132.72
23-08-15, 96.73
24-08-15, 100.22
25-08-15, 121.59
26-08-15, 190.41
27-08-15, 129.05
28-08-15, 139.06
29-08-15, 97.04
30-08-15, 97.50
31-08-15, 107.96
01-09-15, 73.20
02-09-15, 112.78
03-09-15, 78.94
04-09-15, 66.25
05-09-15, 107.64
06-09-15, 119.41
07-09-15, 85.32
08-09-15, 183.28
09-09-15, 79.71
10-09-15, 99.79
11-09-15, 123.69
12-09-15, 88.56
13-09-15, 72.31
14-09-15, 77.90
15-09-15, 75.92
16-09-15, 92.14
17-09-15, 81.88
18-09-15, 66.86
19-09-15, 98.47
20-09-15, 185.62
21-09-15, 154.74
22-09-15, 86.96
23-09-15, 95.52
24-09-15, 105.82
25-09-15, 70.19
26-09-15, 114.80
27-09-15, 150.27
28-09-15, 70.96
29-09-15, 51.22
30-09-15, 101.79
01-10-15, 75.24
02-10-15, 98.00
03-10-15, 151.08
04-10-15, 73.08
05-10-15, 79.74
06-10-15, 75.55
07-10-15, 113.77
08-10-15, 79.14
09-10-15, 120.96
10-10-15, 70.08
11-10-15, 148.31
12-10-15, 92.79
13-10-15, 90.29
14-10-15, 134.39
15-10-15, 218.13
16-10-15, 225.93
17-10-15, 150.53
18-10-15, 114.01
19-10-15, 78.14
20-10-15, 76.69
21-10-15, 111.43
22-10-15, 75.88
23-10-15, 82.84
24-10-15, 133.35
25-10-15, 144.79
26-10-15, 139.21
27-10-15, 127.64
28-10-15, 94.73
29-10-15, 83.68
30-10-15, 93.77
31-10-15, 81.68
01-11-15, 116.51
02-11-15, 138.79
03-11-15, 101.39
04-11-15, 115.52
05-11-15, 205.53
06-11-15, 136.29
07-11-15, 173.14
08-11-15, 143.58
09-11-15, 88.75
10-11-15, 226.59
11-11-15, 168.60
12-11-15, 109.81
13-11-15, 96.38
14-11-15, 104.04
15-11-15, 74.47
16-11-15, 113.53
17-11-15, 108.03
18-11-15, 135.74
19-11-15, 148.01
20-11-15, 122.16
21-11-15, 106.13
22-11-15, 112.23
23-11-15, 99.55
24-11-15, 110.53
25-11-15, 101.44
26-11-15, 105.24
27-11-15, 123.38
28-11-15, 143.73
29-11-15, 88.67
30-11-15, 86.10
01-12-15, 88.82
02-12-15, 68.82
03-12-15, 86.62
04-12-15, 106.76
05-12-15, 88.08
06-12-15, 117.35
07-12-15, 75.40
08-12-15, 85.71
09-12-15, 70.18
10-12-15, 71.76
11-12-15, 66.63
12-12-15, 72.22
13-12-15, 72.04
14-12-15, 69.42
15-12-15, 91.59
16-12-15, 62.95
17-12-15, 87.71
18-12-15, 74.84
19-12-15, 118.12
20-12-15, 72.52
21-12-15, 56.22
22-12-15, 55.40
23-12-15, 67.51
24-12-15, 50.53
25-12-15, 89.76
26-12-15, 62.93
27-12-15, 44.63
28-12-15, 42.67
29-12-15, 81.42
30-12-15, 65.39
31-12-15, 36.25
01-01-16, 76.04
02-01-16, 54.38
03-01-16, 88.91
04-01-16, 92.09
05-01-16, 86.75
06-01-16, 57.89
07-01-16, 108.91
08-01-16, 71.19
09-01-16, 54.96
10-01-16, 58.82
11-01-16, 60.37
12-01-16, 34.06
13-01-16, 80.41
14-01-16, 38.91
15-01-16, 62.27
16-01-16, 61.28
17-01-16, 61.64
18-01-16, 35.54
19-01-16, 53.73
20-01-16, 48.55
21-01-16, 50.78
22-01-16, 57.73
23-01-16, 57.12
24-01-16, 52.10
25-01-16, 41.03
26-01-16, 59.74
27-01-16, 60.77
28-01-16, 33.28
29-01-16, 63.39
30-01-16, 51.76
31-01-16, 38.21
01-02-16, 57.60
02-02-16, 54.91
03-02-16, 66.78
04-02-16, 43.97
05-02-16, 50.45
06-02-16, 56.93
07-02-16, 51.40
08-02-16, 76.88
09-02-16, 49.70
10-02-16, 57.16
11-02-16, 49.70
12-02-16, 42.24
13-02-16, 53.78
14-02-16, 70.46
15-02-16, 42.34
16-02-16, 31.84
17-02-16, 49.87
18-02-16, 78.32
19-02-16, 57.72
20-02-16, 55.65
21-02-16, 60.91
22-02-16, 53.71
23-02-16, 96.43
24-02-16, 40.27
25-02-16, 62.84
26-02-16, 40.21
27-02-16, 70.01
28-02-16, 41.12
29-02-16, 26.21
01-03-16, 60.68
02-03-16, 49.20
03-03-16, 60.30
04-03-16, 39.28
05-03-16, 25.61
06-03-16, 71.83
07-03-16, 46.71
08-03-16, 55.98
09-03-16, 73.88
10-03-16, 48.75
11-03-16, 53.27
12-03-16, 46.68
13-03-16, 48.94
14-03-16, 51.61
15-03-16, 54.74
16-03-16, 45.80
17-03-16, 53.46
18-03-16, 55.67
19-03-16, 51.84
20-03-16, 59.79
21-03-16, 59.38
22-03-16, 57.73
23-03-16, 55.60
24-03-16, 57.97
25-03-16, 49.17
26-03-16, 47.13
27-03-16, 48.21
28-03-16, 37.14
29-03-16, 51.96
30-03-16, 63.28
31-03-16, 96.93
01-04-16, 56.99
02-04-16, 67.31
03-04-16, 74.33
04-04-16, 52.84
05-04-16, 63.49
06-04-16, 80.91
07-04-16, 57.72
08-04-16, 57.79
09-04-16, 90.50
10-04-16, 78.76
11-04-16, 59.82
12-04-16, 78.49
13-04-16, 92.67
14-04-16, 68.64
15-04-16, 52.78
16-04-16, 60.33
17-04-16, 60.00
18-04-16, 58.03
19-04-16, 47.17
20-04-16, 44.49
21-04-16, 124.19
22-04-16, 46.23
23-04-16, 47.60
24-04-16, 72.47
25-04-16, 129.58
26-04-16, 92.36
27-04-16, 98.02
28-04-16, 98.31
29-04-16, 104.00
30-04-16, 109.31
01-05-16, 174.69
02-05-16, 111.12
03-05-16, 101.16
04-05-16, 109.11
05-05-16, 60.03
06-05-16, 87.63
07-05-16, 113.29
08-05-16, 120.77
09-05-16, 114.03
10-05-16, 194.97
11-05-16, 139.09
12-05-16, 102.47
13-05-16, 77.49
14-05-16, 77.27
15-05-16, 55.24
16-05-16, 76.15
17-05-16, 119.03
18-05-16, 87.10
19-05-16, 79.53
20-05-16, 68.21
21-05-16, 93.73
22-05-16, 77.90
23-05-16, 71.35
24-05-16, 44.74
25-05-16, 60.38
26-05-16, 110.50
27-05-16, 72.39
28-05-16, 117.43
29-05-16, 99.52
30-05-16, 89.30
31-05-16, 299.18
01-06-16, 107.69
02-06-16, 100.32
03-06-16, 105.35
04-06-16, 135.64
05-06-16, 128.10
06-06-16, 120.11
07-06-16, 160.97
08-06-16, 93.38
09-06-16, 71.19
10-06-16, 110.14
11-06-16, 84.54
12-06-16, 97.21
13-06-16, 72.23
14-06-16, 66.04
15-06-16, 60.59
16-06-16, 70.81
17-06-16, 60.93
18-06-16, 51.15
19-06-16, 130.14
20-06-16, 60.38
21-06-16, 87.79
22-06-16, 72.71
23-06-16, 63.13
24-06-16, 216.48
25-06-16, 124.85
26-06-16, 134.36
27-06-16, 86.95
28-06-16, 70.72
29-06-16, 56.68
30-06-16, 54.52
01-07-16, 56.88
02-07-16, 78.00
03-07-16, 110.91
04-07-16, 72.19
05-07-16, 114.96
06-07-16, 233.47
07-07-16, 93.44
08-07-16, 76.06
09-07-16, 64.82
10-07-16, 64.48
11-07-16, 81.30
12-07-16, 126.45
13-07-16, 81.75
14-07-16, 110.80
15-07-16, 192.34
16-07-16, 165.88
17-07-16, 114.85
18-07-16, 201.20
19-07-16, 107.95
20-07-16, 106.50
21-07-16, 92.11
22-07-16, 123.03
23-07-16, 104.73
24-07-16, 94.44
25-07-16, 113.46
26-07-16, 67.20
27-07-16, 122.31
28-07-16, 86.02
29-07-16, 38.42
30-07-16, 77.97
31-07-16, 71.18
01-08-16, 139.52
02-08-16, 77.39
03-08-16, 84.32
04-08-16, 90.07
05-08-16, 61.08
06-08-16, 88.31
07-08-16, 70.31
08-08-16, 65.49
09-08-16, 103.87
10-08-16, 133.86
11-08-16, 69.49
12-08-16, 109.49
13-08-16, 176.69
14-08-16, 114.09
15-08-16, 120.94
16-08-16, 68.64
17-08-16, 132.46
18-08-16, 131.78
19-08-16, 132.73
20-08-16, 82.79
21-08-16, 75.67
22-08-16, 68.31
23-08-16, 35.61
24-08-16, 76.41
25-08-16, 92.49
26-08-16, 141.87
27-08-16, 288.30
28-08-16, 144.34
29-08-16, 85.11
30-08-16, 129.52
31-08-16, 79.53
01-09-16, 108.42
02-09-16, 90.30
03-09-16, 100.95
04-09-16, 100.20
05-09-16, 141.75
06-09-16, 146.20
07-09-16, 163.90
08-09-16, 137.62
09-09-16, 106.81
10-09-16, 136.80
11-09-16, 334.25
12-09-16, 240.63
13-09-16, 129.57
14-09-16, 151.07
15-09-16, 205.55
16-09-16, 131.77
17-09-16, 101.80
18-09-16, 132.07
19-09-16, 122.42
20-09-16, 89.28
21-09-16, 151.55
22-09-16, 115.37
23-09-16, 83.21
24-09-16, 180.70
25-09-16, 239.83
26-09-16, 122.72
27-09-16, 258.92
28-09-16, 138.34
29-09-16, 131.98
30-09-16, 101.99
01-10-16, 167.54
02-10-16, 102.17
03-10-16, 85.60
04-10-16, 100.76
05-10-16, 101.01
06-10-16, 95.22
07-10-16, 132.49
08-10-16, 154.25
09-10-16, 119.20
10-10-16, 249.81
11-10-16, 203.34
12-10-16, 194.81
13-10-16, 133.46
14-10-16, 142.02
15-10-16, 121.35
16-10-16, 208.13
17-10-16, 176.50
18-10-16, 195.03
19-10-16, 133.87
20-10-16, 164.47
21-10-16, 157.89
22-10-16, 110.94
23-10-16, 101.34
24-10-16, 123.41
25-10-16, 182.71
26-10-16, 154.25
27-10-16, 154.77
28-10-16, 179.01
29-10-16, 253.86
30-10-16, 130.95
31-10-16, 148.13
01-11-16, 204.11
02-11-16, 182.52
03-11-16, 120.20
04-11-16, 133.90
05-11-16, 172.67
06-11-16, 185.33
07-11-16, 199.88
08-11-16, 147.16
09-11-16, 150.89
10-11-16, 148.18
11-11-16, 112.07
12-11-16, 106.22
13-11-16, 136.03
14-11-16, 143.66
15-11-16, 151.97
16-11-16, 170.69
17-11-16, 224.21
18-11-16, 183.85
19-11-16, 290.54
20-11-16, 203.71
21-11-16, 150.86
22-11-16, 124.68
23-11-16, 120.58
24-11-16, 146.50
25-11-16, 129.22
26-11-16, 139.65
27-11-16, 153.05
28-11-16, 175.95
29-11-16, 420.93
30-11-16, 170.33
01-12-16, 218.56
02-12-16, 222.00
03-12-16, 262.45
04-12-16, 267.75
05-12-16, 240.38
06-12-16, 195.72
07-12-16, 158.98
08-12-16, 180.83
09-12-16, 174.41
10-12-16, 177.94
11-12-16, 227.70
12-12-16, 145.28
13-12-16, 134.89
14-12-16, 140.83
15-12-16, 127.27
16-12-16, 131.16
17-12-16, 141.74
18-12-16, 118.41
19-12-16, 100.02
20-12-16, 114.88
21-12-16, 170.89
22-12-16, 188.41
23-12-16, 154.17
24-12-16, 153.20
25-12-16, 135.32
26-12-16, 119.91
27-12-16, 110.06
28-12-16, 110.39
29-12-16, 86.18
30-12-16, 114.78
31-12-16, 122.38
01-01-17, 104.68
02-01-17, 96.48
03-01-17, 109.45
04-01-17, 89.33
05-01-17, 127.30
06-01-17, 107.94
07-01-17, 117.52
08-01-17, 144.97
09-01-17, 194.11
10-01-17, 79.66
11-01-17, 114.14
12-01-17, 100.33
13-01-17, 112.70
14-01-17, 128.06
15-01-17, 96.16
16-01-17, 130.81
17-01-17, 104.92
18-01-17, 142.90
19-01-17, 99.28
20-01-17, 115.61
21-01-17, 89.33
22-01-17, 83.82
23-01-17, 81.36
24-01-17, 96.82
25-01-17, 75.56
26-01-17, 79.69
27-01-17, 87.50
28-01-17, 96.57
29-01-17, 86.21
30-01-17, 113.82
31-01-17, 92.27
01-02-17, 73.45
02-02-17, 77.49
03-02-17, 78.86
04-02-17, 82.06
05-02-17, 59.55
06-02-17, 77.02
07-02-17, 68.81
08-02-17, 70.39
09-02-17, 64.93
10-02-17, 71.29
11-02-17, 76.46
12-02-17, 53.13
13-02-17, 72.22
14-02-17, 75.62
15-02-17, 62.78
16-02-17, 65.22
17-02-17, 85.40
18-02-17, 78.83
19-02-17, 63.50
20-02-17, 63.71
21-02-17, 94.62
22-02-17, 69.80
23-02-17, 68.90
24-02-17, 85.12
25-02-17, 98.63
26-02-17, 81.53
27-02-17, 81.68
28-02-17, 63.87
01-03-17, 88.20
02-03-17, 82.29
03-03-17, 71.38
04-03-17, 72.73
05-03-17, 58.08
06-03-17, 79.01
07-03-17, 101.51
08-03-17, 112.86
09-03-17, 116.36
10-03-17, 130.16
11-03-17, 83.73
12-03-17, 137.60
13-03-17, 101.26
14-03-17, 136.14
15-03-17, 119.07
16-03-17, 129.67
17-03-17, 75.27
18-03-17, 105.37
19-03-17, 101.22
20-03-17, 92.30
21-03-17, 110.85
22-03-17, 92.16
23-03-17, 172.28
24-03-17, 146.68
25-03-17, 148.12
26-03-17, 233.48
27-03-17, 153.95
28-03-17, 157.32
29-03-17, 142.16
30-03-17, 175.10
31-03-17, 179.19
01-04-17, 260.91
02-04-17, 139.28
03-04-17, 121.74
04-04-17, 102.35
05-04-17, 94.16
06-04-17, 81.48
07-04-17, 89.51
08-04-17, 94.10
09-04-17, 128.76
10-04-17, 122.74
11-04-17, 109.06
12-04-17, 194.56
13-04-17, 133.68
14-04-17, 137.04
15-04-17, 99.94
16-04-17, 121.53
17-04-17, 130.93
18-04-17, 113.12
19-04-17, 208.40
20-04-17, 137.66
21-04-17, 144.03
22-04-17, 109.40
23-04-17, 101.00
24-04-17, 102.88
25-04-17, 77.70
26-04-17, 158.71
27-04-17, 109.37
28-04-17, 74.35
29-04-17, 98.84
30-04-17, 135.84
01-05-17, 116.55
02-05-17, 195.29
03-05-17, 125.28
04-05-17, 143.39
05-05-17, 158.05
06-05-17, 470.76
07-05-17, 219.69
08-05-17, 388.78
09-05-17, 254.21
10-05-17, 306.82
11-05-17, 257.95
12-05-17, 326.92
13-05-17, 188.66
14-05-17, 183.04
15-05-17, 256.10
16-05-17, 294.50
17-05-17, 230.93
18-05-17, 302.74
19-05-17, 205.80
20-05-17, 170.34
21-05-17, 274.36
22-05-17, 171.72
23-05-17, 151.70
24-05-17, 110.11
25-05-17, 102.94
26-05-17, 130.34
27-05-17, 160.02
28-05-17, 115.67
29-05-17, 123.26
30-05-17, 106.89
31-05-17, 189.27
01-06-17, 196.27
02-06-17, 227.22
03-06-17, 116.42
04-06-17, 116.78
05-06-17, 87.75
06-06-17, 88.83
07-06-17, 138.81
08-06-17, 223.52
09-06-17, 192.09
10-06-17, 112.37
11-06-17, 112.38
12-06-17, 169.89
13-06-17, 237.85
14-06-17, 119.39
15-06-17, 215.75
16-06-17, 158.97
17-06-17, 226.61
18-06-17, 196.72
19-06-17, 178.18
20-06-17, 154.33
21-06-17, 184.67
22-06-17, 141.09
23-06-17, 159.23
24-06-17, 148.28
25-06-17, 99.75
26-06-17, 233.84
27-06-17, 230.97
28-06-17, 194.70
29-06-17, 156.46
30-06-17, 332.62
01-07-17, 170.98
02-07-17, 117.80
03-07-17, 133.16
04-07-17, 116.53
05-07-17, 155.39
06-07-17, 128.18
07-07-17, 102.96
08-07-17, 110.62
09-07-17, 91.64
10-07-17, 94.57
11-07-17, 116.78
12-07-17, 84.32
13-07-17, 77.39
14-07-17, 98.34
15-07-17, 126.02
16-07-17, 125.40
17-07-17, 130.68
18-07-17, 127.75
19-07-17, 223.15
20-07-17, 236.67
21-07-17, 131.71
22-07-17, 96.48
23-07-17, 97.07
24-07-17, 89.12
25-07-17, 96.31
26-07-17, 94.08
27-07-17, 94.65
28-07-17, 93.55
29-07-17, 84.48
30-07-17, 90.52
31-07-17, 92.18
01-08-17, 81.37
02-08-17, 89.72
03-08-17, 86.86
04-08-17, 112.17
05-08-17, 100.55
06-08-17, 71.20
07-08-17, 101.91
08-08-17, 111.85
09-08-17, 125.96
10-08-17, 91.02
11-08-17, 146.11
12-08-17, 175.77
13-08-17, 104.34
14-08-17, 98.78
15-08-17, 94.75
16-08-17, 203.64
17-08-17, 144.52
18-08-17, 94.39
19-08-17, 93.57
20-08-17, 102.76
21-08-17, 97.75
22-08-17, 99.96
23-08-17, 102.74
24-08-17, 97.32
25-08-17, 77.93
26-08-17, 105.82
27-08-17, 142.98
28-08-17, 104.82
29-08-17, 196.42
30-08-17, 191.76
31-08-17, 170.79
01-09-17, 100.66
02-09-17, 100.58
03-09-17, 85.35
04-09-17, 88.63
05-09-17, 117.91
06-09-17, 115.76
07-09-17, 167.32
08-09-17, 129.98
09-09-17, 157.45
10-09-17, 319.09
11-09-17, 125.12
12-09-17, 127.08
13-09-17, 165.45
14-09-17, 134.99
15-09-17, 150.22
16-09-17, 305.07
17-09-17, 268.38
18-09-17, 126.53
19-09-17, 158.70
20-09-17, 141.21
21-09-17, 117.83
22-09-17, 118.43
23-09-17, 301.67
24-09-17, 132.28
25-09-17, 148.50
26-09-17, 117.18
27-09-17, 88.04
28-09-17, 135.05
29-09-17, 141.99
30-09-17, 209.13
01-10-17, 157.45
02-10-17, 225.43
03-10-17, 221.17
04-10-17, 140.64
05-10-17, 151.69
06-10-17, 138.34
07-10-17, 124.76
08-10-17, 107.34
09-10-17, 131.63
10-10-17, 136.24
11-10-17, 181.82
12-10-17, 92.93
13-10-17, 103.71
14-10-17, 130.66
15-10-17, 160.86
16-10-17, 110.69
17-10-17, 87.64
18-10-17, 91.60
19-10-17, 92.66
20-10-17, 95.93
21-10-17, 142.47
22-10-17, 139.63
23-10-17, 136.97
24-10-17, 96.96
25-10-17, 108.77
26-10-17, 158.85
27-10-17, 143.71
28-10-17, 165.62
29-10-17, 214.21
30-10-17, 123.92
31-10-17, 136.33
01-11-17, 153.68
02-11-17, 86.48
03-11-17, 123.58
04-11-17, 135.65
05-11-17, 118.23
06-11-17, 103.33
07-11-17, 93.39
08-11-17, 143.59
09-11-17, 129.64
10-11-17, 113.49
11-11-17, 152.96
12-11-17, 137.30
13-11-17, 104.39
14-11-17, 119.47
15-11-17, 185.21
16-11-17, 270.29
17-11-17, 165.03
18-11-17, 317.36
19-11-17, 381.65
20-11-17, 206.16
21-11-17, 152.70
22-11-17, 136.83
23-11-17, 130.19
24-11-17, 138.09
25-11-17, 124.17
26-11-17, 129.45
27-11-17, 113.55
28-11-17, 150.41
29-11-17, 118.01
30-11-17, 119.33
01-12-17, 162.49
02-12-17, 138.81
03-12-17, 114.18
04-12-17, 112.11
05-12-17, 153.86
06-12-17, 103.00
07-12-17, 110.03
08-12-17, 122.06
09-12-17, 182.49
10-12-17, 145.20
11-12-17, 156.90
12-12-17, 106.71
13-12-17, 123.43
14-12-17, 95.32
15-12-17, 99.70
16-12-17, 107.73
17-12-17, 81.99
18-12-17, 92.63
19-12-17, 82.79
20-12-17, 85.85
21-12-17, 56.48
22-12-17, 100.09
23-12-17, 85.16
24-12-17, 66.50
25-12-17, 101.99
26-12-17, 73.29
27-12-17, 116.29
28-12-17, 83.16
29-12-17, 129.87
30-12-17, 115.82
31-12-17, 116.79
01-01-18, 91.72
02-01-18, 161.81
03-01-18, 128.87
04-01-18, 138.47
05-01-18, 134.94
06-01-18, 112.49
07-01-18, 99.39
08-01-18, 95.36
09-01-18, 157.39
10-01-18, 153.84
11-01-18, 117.85
12-01-18, 100.36
13-01-18, 121.76
14-01-18, 99.88
15-01-18, 97.81
16-01-18, 88.12
17-01-18, 100.40
18-01-18, 146.13
19-01-18, 193.11
20-01-18, 119.44
21-01-18, 89.59
22-01-18, 94.48
23-01-18, 112.53
24-01-18, 87.89
25-01-18, 77.48
26-01-18, 89.63
27-01-18, 58.29
28-01-18, 100.26
29-01-18, 70.21
30-01-18, 75.76
31-01-18, 71.85
01-02-18, 60.37
02-02-18, 101.71
03-02-18, 146.22
04-02-18, 61.13
05-02-18, 86.94
06-02-18, 90.83
07-02-18, 62.75
08-02-18, 66.48
09-02-18, 54.34
10-02-18, 77.75
11-02-18, 82.17
12-02-18, 77.06
13-02-18, 57.86
14-02-18, 90.00
15-02-18, 70.21
16-02-18, 88.25
17-02-18, 79.26
18-02-18, 71.68
19-02-18, 71.36
20-02-18, 63.93
21-02-18, 35.58
22-02-18, 94.25
23-02-18, 95.10
24-02-18, 100.59
25-02-18, 78.71
26-02-18, 56.14
27-02-18, 85.64
28-02-18, 61.38
01-03-18, 67.78
02-03-18, 70.41
03-03-18, 48.74
04-03-18, 62.60
05-03-18, 80.45
06-03-18, 76.57
07-03-18, 80.72
08-03-18, 82.34
09-03-18, 66.62
10-03-18, 88.12
11-03-18, 54.59
12-03-18, 44.36
13-03-18, 74.59
14-03-18, 63.96
15-03-18, 86.56
16-03-18, 61.94
17-03-18, 38.29
18-03-18, 50.53
19-03-18, 87.29
20-03-18, 50.59
21-03-18, 91.44
22-03-18, 86.23
23-03-18, 73.12
24-03-18, 111.37
25-03-18, 83.29
26-03-18, 142.99
27-03-18, 128.31
28-03-18, 90.58
29-03-18, 113.17
30-03-18, 87.74
31-03-18, 115.59
01-04-18, 170.93
02-04-18, 182.31
03-04-18, 202.06
04-04-18, 120.65
05-04-18, 133.92
06-04-18, 153.00
07-04-18, 103.09
08-04-18, 111.91
09-04-18, 83.25
10-04-18, 104.35
11-04-18, 124.96
12-04-18, 166.82
13-04-18, 146.46
14-04-18, 131.38
15-04-18, 131.52
16-04-18, 101.03
17-04-18, 102.54
18-04-18, 91.27
19-04-18, 149.55
20-04-18, 91.85
21-04-18, 79.61
22-04-18, 100.21
23-04-18, 171.55
24-04-18, 155.19
25-04-18, 170.97
26-04-18, 116.39
27-04-18, 443.91
28-04-18, 272.59
29-04-18, 267.96
30-04-18, 180.05
01-05-18, 134.31
02-05-18, 133.20
03-05-18, 133.30
04-05-18, 204.47
05-05-18, 188.46
06-05-18, 138.90
07-05-18, 233.75
08-05-18, 373.14
09-05-18, 424.66
10-05-18, 450.37
11-05-18, 413.00
12-05-18, 281.20
13-05-18, 400.65
14-05-18, 348.04
15-05-18, 386.51
16-05-18, 268.82
17-05-18, 341.18
18-05-18, 274.76
19-05-18, 261.67
20-05-18, 654.97
21-05-18, 336.86
22-05-18, 326.92
23-05-18, 279.85
24-05-18, 218.97
25-05-18, 250.19
26-05-18, 231.18
27-05-18, 361.13
28-05-18, 391.40
29-05-18, 211.28
30-05-18, 204.37
31-05-18, 224.00
01-06-18, 340.15
02-06-18, 389.99
03-06-18, 377.83
04-06-18, 190.91
05-06-18, 177.81
06-06-18, 153.35
07-06-18, 170.60
08-06-18, 95.13
09-06-18, 218.05
10-06-18, 127.38
11-06-18, 143.38
12-06-18, 198.72
13-06-18, 122.86
14-06-18, 156.02
15-06-18, 137.04
16-06-18, 130.36
17-06-18, 153.09
18-06-18, 102.73
19-06-18, 93.25
20-06-18, 112.07
21-06-18, 183.35
22-06-18, 128.94
23-06-18, 180.33
24-06-18, 239.54
25-06-18, 156.91
26-06-18, 168.77
27-06-18, 104.74
28-06-18, 168.86
29-06-18, 184.54
30-06-18, 207.25
01-07-18, 160.39
02-07-18, 213.80
03-07-18, 269.61
04-07-18, 133.91
05-07-18, 119.82
06-07-18, 120.40
07-07-18, 113.20
08-07-18, 148.23
09-07-18, 93.16
10-07-18, 99.65
11-07-18, 119.17
12-07-18, 101.01
13-07-18, 93.09
14-07-18, 91.98
15-07-18, 108.27
16-07-18, 103.68
17-07-18, 96.20
18-07-18, 115.80
19-07-18, 82.18
20-07-18, 175.02
21-07-18, 125.52
22-07-18, 140.04
23-07-18, 97.85
24-07-18, 145.16
25-07-18, 130.59
26-07-18, 99.20
27-07-18, 207.23
28-07-18, 181.80
29-07-18, 136.53
30-07-18, 187.83
31-07-18, 147.38
01-08-18, 123.86
02-08-18, 107.18
03-08-18, 209.34
04-08-18, 190.53
05-08-18, 223.54
06-08-18, 116.28
07-08-18, 115.15
08-08-18, 115.17
09-08-18, 86.85
10-08-18, 73.65
11-08-18, 99.66
12-08-18, 100.75
13-08-18, 71.59
14-08-18, 218.27
15-08-18, 150.32
16-08-18, 93.47
17-08-18, 82.41
18-08-18, 86.31
19-08-18, 222.71
20-08-18, 114.84
21-08-18, 98.78
22-08-18, 152.45
23-08-18, 105.82
24-08-18, 142.54
25-08-18, 93.04
26-08-18, 156.32
27-08-18, 208.79
28-08-18, 111.14
29-08-18, 115.76
30-08-18, 184.72
31-08-18, 102.49
01-09-18, 114.07
02-09-18, 89.23
03-09-18, 93.66
04-09-18, 152.49
05-09-18, 170.83
06-09-18, 369.76
07-09-18, 236.87
08-09-18, 326.07
09-09-18, 284.98
10-09-18, 151.87
11-09-18, 113.62
12-09-18, 186.94
13-09-18, 97.65
14-09-18, 175.36
15-09-18, 190.32
16-09-18, 303.74
17-09-18, 153.31
18-09-18, 138.39
19-09-18, 231.34
20-09-18, 210.30
21-09-18, 143.45
22-09-18, 193.77
23-09-18, 118.86
24-09-18, 116.18
25-09-18, 112.19
26-09-18, 110.46
27-09-18, 217.32
28-09-18, 196.24
29-09-18, 237.35
30-09-18, 224.97
01-10-18, 163.76
02-10-18, 187.27
03-10-18, 168.65
04-10-18, 203.89
05-10-18, 265.80
06-10-18, 273.34
07-10-18, 210.60
08-10-18, 218.32
09-10-18, 249.23
10-10-18, 224.82
11-10-18, 427.90
12-10-18, 269.20
13-10-18, 180.78
14-10-18, 258.34
15-10-18, 154.59
16-10-18, 201.86
17-10-18, 218.76
18-10-18, 178.48
19-10-18, 155.33
20-10-18, 226.14
21-10-18, 237.69
22-10-18, 184.75
23-10-18, 189.18
24-10-18, 188.35
25-10-18, 232.55
26-10-18, 168.60
27-10-18, 152.38
28-10-18, 157.93
29-10-18, 160.53
30-10-18, 125.43
31-10-18, 149.38
01-11-18, 129.49
02-11-18, 185.48
03-11-18, 251.04
04-11-18, 184.34
05-11-18, 265.67
06-11-18, 209.57
07-11-18, 232.49
08-11-18, 147.69
09-11-18, 189.81
10-11-18, 151.62
11-11-18, 142.37
12-11-18, 163.81
13-11-18, 150.45
14-11-18, 153.70
15-11-18, 155.59
16-11-18, 140.65
17-11-18, 156.23
18-11-18, 196.94
19-11-18, 199.19
20-11-18, 140.31
21-11-18, 155.32
22-11-18, 158.72
23-11-18, 188.31
24-11-18, 175.37
25-11-18, 409.73
26-11-18, 301.59
27-11-18, 222.39
28-11-18, 203.76
29-11-18, 161.52
30-11-18, 157.04
01-12-18, 167.12
02-12-18, 133.19
03-12-18, 118.23
04-12-18, 108.63
05-12-18, 167.57
06-12-18, 135.62
07-12-18, 108.26
08-12-18, 125.04
09-12-18, 163.38
10-12-18, 119.30
11-12-18, 99.94
12-12-18, 120.20
13-12-18, 106.51
14-12-18, 117.11
15-12-18, 119.89
16-12-18, 83.61
17-12-18, 105.49
18-12-18, 98.57
19-12-18, 104.02
20-12-18, 96.91
21-12-18, 103.21
22-12-18, 111.80
23-12-18, 110.31
24-12-18, 97.63
25-12-18, 76.30
26-12-18, 85.95
27-12-18, 88.44
28-12-18, 81.30
29-12-18, 77.07
30-12-18, 71.20
31-12-18, 73.42
01-01-19, 90.72
02-01-19, 69.61
03-01-19, 68.70
04-01-19, 80.95
05-01-19, 98.30
06-01-19, 91.56
07-01-19, 95.26
08-01-19, 64.32
09-01-19, 115.93
10-01-19, 96.27
11-01-19, 84.42
12-01-19, 69.61
13-01-19, 74.09
14-01-19, 85.09
15-01-19, 91.55
16-01-19, 76.82
17-01-19, 79.46
18-01-19, 79.17
19-01-19, 89.61
20-01-19, 87.14
21-01-19, 106.57
22-01-19, 79.55
23-01-19, 80.79
24-01-19, 61.68
25-01-19, 73.31
26-01-19, 67.27
27-01-19, 72.84
28-01-19, 68.65
29-01-19, 69.13
30-01-19, 77.72
31-01-19, 86.45
01-02-19, 51.81
02-02-19, 86.88
03-02-19, 47.27
04-02-19, 65.40
05-02-19, 59.56
06-02-19, 50.72
07-02-19, 66.33
08-02-19, 48.07
09-02-19, 38.49
10-02-19, 93.34
11-02-19, 93.60
12-02-19, 88.21
13-02-19, 81.23
14-02-19, 73.52
15-02-19, 53.80
16-02-19, 65.67
17-02-19, 64.98
18-02-19, 49.43
19-02-19, 113.51
20-02-19, 60.88
21-02-19, 120.68
22-02-19, 82.60
23-02-19, 56.06
24-02-19, 83.45
25-02-19, 74.85
26-02-19, 80.85
27-02-19, 115.01
28-02-19, 108.41
01-03-19, 86.72
02-03-19, 89.49
03-03-19, 71.73
04-03-19, 102.85
05-03-19, 69.97
06-03-19, 54.89
07-03-19, 66.35
08-03-19, 90.98
09-03-19, 65.40
10-03-19, 73.84
11-03-19, 103.87
12-03-19, 101.70
13-03-19, 91.31
14-03-19, 66.86
15-03-19, 88.96
16-03-19, 57.01
17-03-19, 45.78
18-03-19, 78.91
19-03-19, 128.45
20-03-19, 55.33
21-03-19, 85.01
22-03-19, 129.61
23-03-19, 110.44
24-03-19, 128.53
25-03-19, 121.66
26-03-19, 141.12
27-03-19, 116.54
28-03-19, 89.64
29-03-19, 144.85
30-03-19, 94.20
31-03-19, 92.12
01-04-19, 187.77
02-04-19, 258.79
03-04-19, 101.03
04-04-19, 95.12
05-04-19, 197.94
06-04-19, 290.32
07-04-19, 199.27
08-04-19, 127.70
09-04-19, 124.19
10-04-19, 123.39
11-04-19, 127.80
12-04-19, 83.73
13-04-19, 109.54
14-04-19, 187.66
15-04-19, 111.93
16-04-19, 103.95
17-04-19, 130.11
18-04-19, 199.90
19-04-19, 152.23
20-04-19, 204.94
21-04-19, 152.21
22-04-19, 225.81
23-04-19, 146.64
24-04-19, 185.06
25-04-19, 203.51
26-04-19, 268.82
27-04-19, 164.90
28-04-19, 114.76
29-04-19, 88.29
30-04-19, 97.43
01-05-19, 83.33
02-05-19, 71.33
03-05-19, 108.63
04-05-19, 75.93
05-05-19, 100.97
06-05-19, 72.53
07-05-19, 84.90
08-05-19, 82.83
09-05-19, 148.02
10-05-19, 300.35
11-05-19, 364.24
12-05-19, 287.59
13-05-19, 187.46
14-05-19, 254.79
15-05-19, 143.17
16-05-19, 106.48
17-05-19, 161.05
18-05-19, 142.03
19-05-19, 199.70
20-05-19, 214.23
21-05-19, 292.54
22-05-19, 305.70
23-05-19, 352.17
24-05-19, 215.99
25-05-19, 321.87
26-05-19, 227.91
27-05-19, 404.18
28-05-19, 280.15
29-05-19, 233.41
30-05-19, 371.99
31-05-19, 237.16
01-06-19, 293.00
02-06-19, 257.62
03-06-19, 173.37
04-06-19, 169.61
05-06-19, 228.57
06-06-19, 167.17
07-06-19, 267.68
08-06-19, 285.05
09-06-19, 203.99
10-06-19, 188.23
11-06-19, 198.82
12-06-19, 227.25
13-06-19, 188.64
14-06-19, 234.39
15-06-19, 250.49
16-06-19, 173.44
17-06-19, 144.33
18-06-19, 120.39
19-06-19, 110.19
20-06-19, 132.48
21-06-19, 117.00
22-06-19, 101.16
23-06-19, 123.10
24-06-19, 128.67
25-06-19, 118.72
26-06-19, 106.27
27-06-19, 121.72
28-06-19, 113.95
29-06-19, 104.30
30-06-19, 101.63
01-07-19, 109.60
02-07-19, 102.39
03-07-19, 168.90
04-07-19, 119.78
05-07-19, 161.52
06-07-19, 188.07
07-07-19, 92.51
08-07-19, 113.01
09-07-19, 118.12
10-07-19, 106.17
11-07-19, 128.97
12-07-19, 112.34
13-07-19, 113.10
14-07-19, 216.90
15-07-19, 224.37
16-07-19, 136.49
17-07-19, 99.12
18-07-19, 89.29
19-07-19, 101.45
20-07-19, 123.87
21-07-19, 115.74
22-07-19, 81.82
23-07-19, 266.00
24-07-19, 133.10
25-07-19, 125.27
26-07-19, 109.33
27-07-19, 147.94
28-07-19, 132.90
29-07-19, 89.47
30-07-19, 112.47
31-07-19, 92.35
01-08-19, 67.62
02-08-19, 113.12
03-08-19, 129.52
04-08-19, 89.92
05-08-19, 104.85
06-08-19, 100.34
07-08-19, 70.20
08-08-19, 76.07
09-08-19, 77.36
10-08-19, 81.57
11-08-19, 83.70
12-08-19, 68.59
13-08-19, 92.70
14-08-19, 62.17
15-08-19, 91.73
16-08-19, 96.47
17-08-19, 89.99
18-08-19, 86.35
19-08-19, 80.50
20-08-19, 65.83
21-08-19, 79.75
22-08-19, 94.45
23-08-19, 73.96
24-08-19, 79.21
25-08-19, 59.65
26-08-19, 49.72
27-08-19, 39.39
28-08-19, 77.85
29-08-19, 62.89
30-08-19, 76.38
31-08-19, 62.22
01-09-19, 79.60
02-09-19, 90.02
03-09-19, 61.78
04-09-19, 87.14
05-09-19, 73.49
06-09-19, 188.45
07-09-19, 60.23
08-09-19, 93.17
09-09-19, 53.63
10-09-19, 76.01
11-09-19, 61.64
12-09-19, 99.90
13-09-19, 144.99
14-09-19, 107.04
15-09-19, 89.96
16-09-19, 107.04
17-09-19, 92.50
18-09-19, 77.83
19-09-19, 193.98
20-09-19, 110.46
21-09-19, 160.49
22-09-19, 117.57
23-09-19, 209.65
24-09-19, 147.15
25-09-19, 114.25
26-09-19, 203.03
27-09-19, 101.70
28-09-19, 98.12
29-09-19, 95.34
30-09-19, 107.19
01-10-19, 163.44
02-10-19, 155.26
03-10-19, 119.56
04-10-19, 84.36
05-10-19, 117.76
06-10-19, 84.67
07-10-19, 101.52
08-10-19, 104.80
09-10-19, 79.09
10-10-19, 169.55
11-10-19, 104.78
12-10-19, 125.75
13-10-19, 297.68
14-10-19, 263.73
15-10-19, 151.40
16-10-19, 149.92
17-10-19, 130.47
18-10-19, 159.92
19-10-19, 191.29
20-10-19, 198.37
21-10-19, 257.34
22-10-19, 212.62
23-10-19, 207.66
24-10-19, 316.99
25-10-19, 246.49
26-10-19, 217.36
27-10-19, 809.67
28-10-19, 149.69
29-10-19, 178.78
30-10-19, 191.28
31-10-19, 141.00
01-11-19, 120.36
02-11-19, 142.27
03-11-19, 124.15
04-11-19, 147.72
05-11-19, 192.50
06-11-19, 129.66
07-11-19, 112.13
08-11-19, 115.20
09-11-19, 153.17
10-11-19, 107.75
11-11-19, 155.93
12-11-19, 151.13
13-11-19, 210.83
14-11-19, 176.29
15-11-19, 140.36
16-11-19, 173.85
17-11-19, 136.28
18-11-19, 115.48
19-11-19, 161.39
20-11-19, 135.81
21-11-19, 99.98
22-11-19, 123.28
23-11-19, 153.97
24-11-19, 126.23
25-11-19, 97.35
