"","Mes","Fecha","q","Anual","qmaxa","qmin","qaa"
"1496",6,2011-06-01,251.84,2011,77.0865555555555,46.13,174.753444444444
"1537",6,2011-06-02,594.9,2011,77.0865555555555,46.13,517.813444444444
"1456",6,2011-06-03,362.62,2011,77.0865555555555,46.13,285.533444444444
"1495",6,2011-06-04,243.04,2011,77.0865555555555,46.13,165.953444444444
"1494",6,2011-06-05,260.75,2011,77.0865555555555,46.13,183.663444444444
"1493",6,2011-06-06,287.12,2011,77.0865555555555,46.13,210.033444444444
"1454",6,2011-06-07,261.37,2011,77.0865555555555,46.13,184.283444444444
"1453",6,2011-06-08,232.73,2011,77.0865555555555,46.13,155.643444444444
"1452",6,2011-06-09,234.1,2011,77.0865555555555,46.13,157.013444444444
"1451",6,2011-06-10,212.45,2011,77.0865555555555,46.13,135.363444444444
"1450",6,2011-06-11,198.04,2011,77.0865555555555,46.13,120.953444444444
"1424",6,2011-06-12,169.12,2011,77.0865555555555,46.13,92.0334444444445
"1398",6,2011-06-13,146.01,2011,77.0865555555555,46.13,68.9234444444444
"1380",6,2011-06-14,145.91,2011,77.0865555555555,46.13,68.8234444444444
"1371",6,2011-06-15,122.26,2011,77.0865555555555,46.13,46.13
"1366",6,2011-06-16,132.29,2011,77.0865555555555,46.13,55.2034444444444
"1410",6,2011-06-17,212.38,2011,77.0865555555555,46.13,135.293444444444
"1362",6,2011-06-18,206.03,2011,77.0865555555555,46.13,128.943444444444
"1363",6,2011-06-19,134.38,2011,77.0865555555555,46.13,57.2934444444444
"1364",6,2011-06-20,154.96,2011,77.0865555555555,46.13,77.8734444444445
"1376",6,2011-06-21,165.19,2011,77.0865555555555,46.13,88.1034444444444
"1377",6,2011-06-22,132.7,2011,77.0865555555555,46.13,55.6134444444444
"1374",6,2011-06-23,295.88,2011,77.0865555555555,46.13,218.793444444444
"1394",6,2011-06-24,361.91,2011,77.0865555555555,46.13,284.823444444444
"1395",6,2011-06-25,399.45,2011,77.0865555555555,46.13,322.363444444444
"1396",6,2011-06-26,338.56,2011,77.0865555555555,46.13,261.473444444444
"1389",6,2011-06-27,307.63,2011,77.0865555555555,46.13,230.543444444444
"1386",6,2011-06-28,171.73,2011,77.0865555555555,46.13,94.6434444444444
"1387",6,2011-06-29,183.34,2011,77.0865555555555,46.13,106.253444444444
"1388",6,2011-06-30,187.9,2011,77.0865555555555,46.13,110.813444444444
"1525",6,2012-06-01,128.39,2012,77.0865555555555,46.13,51.3034444444444
"1497",6,2012-06-02,134.81,2012,77.0865555555555,46.13,57.7234444444445
"1429",6,2012-06-03,133.85,2012,77.0865555555555,46.13,56.7634444444444
"1455",6,2012-06-04,129.36,2012,77.0865555555555,46.13,52.2734444444445
"1402",6,2012-06-05,129.99,2012,77.0865555555555,46.13,52.9034444444445
"1428",6,2012-06-06,116.75,2012,77.0865555555555,46.13,46.13
"1427",6,2012-06-07,198.77,2012,77.0865555555555,46.13,121.683444444444
"1426",6,2012-06-08,202.61,2012,77.0865555555555,46.13,125.523444444444
"1425",6,2012-06-09,118,2012,77.0865555555555,46.13,46.13
"1399",6,2012-06-10,124.24,2012,77.0865555555555,46.13,47.1534444444444
"1381",6,2012-06-11,100.71,2012,77.0865555555555,46.13,46.13
"1372",6,2012-06-12,98.96,2012,77.0865555555555,46.13,46.13
"1365",6,2012-06-13,122.47,2012,77.0865555555555,46.13,46.13
"1368",6,2012-06-14,144.54,2012,77.0865555555555,46.13,67.4534444444444
"1369",6,2012-06-15,223.73,2012,77.0865555555555,46.13,146.643444444444
"1375",6,2012-06-16,285.79,2012,77.0865555555555,46.13,208.703444444444
"1382",6,2012-06-17,140.17,2012,77.0865555555555,46.13,63.0834444444444
"1383",6,2012-06-18,154.82,2012,77.0865555555555,46.13,77.7334444444444
"1397",6,2012-06-19,113.22,2012,77.0865555555555,46.13,46.13
"1408",6,2012-06-20,101.91,2012,77.0865555555555,46.13,46.13
"1409",6,2012-06-21,159.07,2012,77.0865555555555,46.13,81.9834444444444
"1423",6,2012-06-22,134.6,2012,77.0865555555555,46.13,57.5134444444444
"1412",6,2012-06-23,113.63,2012,77.0865555555555,46.13,46.13
"1413",6,2012-06-24,79.85,2012,77.0865555555555,46.13,46.13
"1414",6,2012-06-25,94.73,2012,77.0865555555555,46.13,46.13
"1415",6,2012-06-26,64.88,2012,77.0865555555555,46.13,46.13
"1443",6,2012-06-27,137.92,2012,77.0865555555555,46.13,60.8334444444444
"1444",6,2012-06-28,242.02,2012,77.0865555555555,46.13,164.933444444444
"1416",6,2012-06-29,160.93,2012,77.0865555555555,46.13,83.8434444444445
"1417",6,2012-06-30,146.79,2012,77.0865555555555,46.13,69.7034444444444
"1513",6,2013-06-01,163.61,2013,77.0865555555555,46.13,86.5234444444445
"1498",6,2013-06-02,135.22,2013,77.0865555555555,46.13,58.1334444444445
"1457",6,2013-06-03,110.68,2013,77.0865555555555,46.13,46.13
"1458",6,2013-06-04,116,2013,77.0865555555555,46.13,46.13
"1430",6,2013-06-05,96.52,2013,77.0865555555555,46.13,46.13
"1379",6,2013-06-06,97.71,2013,77.0865555555555,46.13,46.13
"1401",6,2013-06-07,46.13,2013,77.0865555555555,46.13,46.13
"1400",6,2013-06-08,133.5,2013,77.0865555555555,46.13,56.4134444444445
"1378",6,2013-06-09,68.98,2013,77.0865555555555,46.13,46.13
"1367",6,2013-06-10,104.34,2013,77.0865555555555,46.13,46.13
"1370",6,2013-06-11,62.8,2013,77.0865555555555,46.13,46.13
"1384",6,2013-06-12,276.48,2013,77.0865555555555,46.13,199.393444444444
"1385",6,2013-06-13,246.31,2013,77.0865555555555,46.13,169.223444444444
"1392",6,2013-06-14,107.22,2013,77.0865555555555,46.13,46.13
"1406",6,2013-06-15,177.44,2013,77.0865555555555,46.13,100.353444444444
"1407",6,2013-06-16,341.26,2013,77.0865555555555,46.13,264.173444444444
"1422",6,2013-06-17,121.83,2013,77.0865555555555,46.13,46.13
"1436",6,2013-06-18,161.45,2013,77.0865555555555,46.13,84.3634444444444
"1411",6,2013-06-19,155.19,2013,77.0865555555555,46.13,78.1034444444444
"1439",6,2013-06-20,146.43,2013,77.0865555555555,46.13,69.3434444444445
"1440",6,2013-06-21,199.66,2013,77.0865555555555,46.13,122.573444444444
"1441",6,2013-06-22,101.47,2013,77.0865555555555,46.13,46.13
"1442",6,2013-06-23,97.02,2013,77.0865555555555,46.13,46.13
"1470",6,2013-06-24,255.21,2013,77.0865555555555,46.13,178.123444444444
"1471",6,2013-06-25,253.65,2013,77.0865555555555,46.13,176.563444444444
"1472",6,2013-06-26,113.61,2013,77.0865555555555,46.13,46.13
"1500",6,2013-06-27,117.99,2013,77.0865555555555,46.13,46.13
"1445",6,2013-06-28,195.69,2013,77.0865555555555,46.13,118.603444444444
"1473",6,2013-06-29,140.95,2013,77.0865555555555,46.13,63.8634444444444
"1418",6,2013-06-30,131.62,2013,77.0865555555555,46.13,54.5334444444445
"1541",6,2014-06-01,134.14,2014,77.0865555555555,46.13,57.0534444444444
"1486",6,2014-06-02,124.47,2014,77.0865555555555,46.13,47.3834444444445
"1514",6,2014-06-03,135.42,2014,77.0865555555555,46.13,58.3334444444444
"1459",6,2014-06-04,131.18,2014,77.0865555555555,46.13,54.0934444444445
"1431",6,2014-06-05,88.72,2014,77.0865555555555,46.13,46.13
"1403",6,2014-06-06,119.95,2014,77.0865555555555,46.13,46.13
"1373",6,2014-06-07,278.06,2014,77.0865555555555,46.13,200.973444444444
"1393",6,2014-06-08,287.8,2014,77.0865555555555,46.13,210.713444444444
"1390",6,2014-06-09,124.65,2014,77.0865555555555,46.13,47.5634444444445
"1391",6,2014-06-10,195.81,2014,77.0865555555555,46.13,118.723444444444
"1419",6,2014-06-11,122.22,2014,77.0865555555555,46.13,46.13
"1420",6,2014-06-12,145.9,2014,77.0865555555555,46.13,68.8134444444445
"1421",6,2014-06-13,110.98,2014,77.0865555555555,46.13,46.13
"1449",6,2014-06-14,184.37,2014,77.0865555555555,46.13,107.283444444444
"1437",6,2014-06-15,385.24,2014,77.0865555555555,46.13,308.153444444444
"1438",6,2014-06-16,108.21,2014,77.0865555555555,46.13,46.13
"1466",6,2014-06-17,106.29,2014,77.0865555555555,46.13,46.13
"1467",6,2014-06-18,88.27,2014,77.0865555555555,46.13,46.13
"1468",6,2014-06-19,75.5,2014,77.0865555555555,46.13,46.13
"1469",6,2014-06-20,88.23,2014,77.0865555555555,46.13,46.13
"1510",6,2014-06-21,104.67,2014,77.0865555555555,46.13,46.13
"1511",6,2014-06-22,58.48,2014,77.0865555555555,46.13,46.13
"1499",6,2014-06-23,101.44,2014,77.0865555555555,46.13,46.13
"1527",6,2014-06-24,121.3,2014,77.0865555555555,46.13,46.13
"1528",6,2014-06-25,182.76,2014,77.0865555555555,46.13,105.673444444444
"1529",6,2014-06-26,195.67,2014,77.0865555555555,46.13,118.583444444444
"1501",6,2014-06-27,162.91,2014,77.0865555555555,46.13,85.8234444444444
"1502",6,2014-06-28,101.99,2014,77.0865555555555,46.13,46.13
"1474",6,2014-06-29,91.12,2014,77.0865555555555,46.13,46.13
"1446",6,2014-06-30,87.64,2014,77.0865555555555,46.13,46.13
"1542",6,2015-06-01,168.46,2015,77.0865555555555,46.13,91.3734444444445
"1543",6,2015-06-02,123.26,2015,77.0865555555555,46.13,46.1734444444445
"1515",6,2015-06-03,113.61,2015,77.0865555555555,46.13,46.13
"1487",6,2015-06-04,90.62,2015,77.0865555555555,46.13,46.13
"1432",6,2015-06-05,70.99,2015,77.0865555555555,46.13,46.13
"1404",6,2015-06-06,75.01,2015,77.0865555555555,46.13,46.13
"1405",6,2015-06-07,135.17,2015,77.0865555555555,46.13,58.0834444444444
"1433",6,2015-06-08,212.5,2015,77.0865555555555,46.13,135.413444444444
"1434",6,2015-06-09,238.76,2015,77.0865555555555,46.13,161.673444444444
"1435",6,2015-06-10,122.52,2015,77.0865555555555,46.13,46.13
"1463",6,2015-06-11,174.39,2015,77.0865555555555,46.13,97.3034444444444
"1464",6,2015-06-12,99.37,2015,77.0865555555555,46.13,46.13
"1465",6,2015-06-13,110.64,2015,77.0865555555555,46.13,46.13
"1506",6,2015-06-14,96.53,2015,77.0865555555555,46.13,46.13
"1507",6,2015-06-15,133.95,2015,77.0865555555555,46.13,56.8634444444444
"1508",6,2015-06-16,87.29,2015,77.0865555555555,46.13,46.13
"1509",6,2015-06-17,79.24,2015,77.0865555555555,46.13,46.13
"1550",6,2015-06-18,85.66,2015,77.0865555555555,46.13,46.13
"1538",6,2015-06-19,82.78,2015,77.0865555555555,46.13,46.13
"1526",6,2015-06-20,86.3,2015,77.0865555555555,46.13,46.13
"1554",6,2015-06-21,78.78,2015,77.0865555555555,46.13,46.13
"1555",6,2015-06-22,85.64,2015,77.0865555555555,46.13,46.13
"1556",6,2015-06-23,86.91,2015,77.0865555555555,46.13,46.13
"1597",6,2015-06-24,62.16,2015,77.0865555555555,46.13,46.13
"1598",6,2015-06-25,61.56,2015,77.0865555555555,46.13,46.13
"1557",6,2015-06-26,69.16,2015,77.0865555555555,46.13,46.13
"1571",6,2015-06-27,74.44,2015,77.0865555555555,46.13,46.13
"1530",6,2015-06-28,65.64,2015,77.0865555555555,46.13,46.13
"1475",6,2015-06-29,54.32,2015,77.0865555555555,46.13,46.13
"1447",6,2015-06-30,65.6,2015,77.0865555555555,46.13,46.13
"1584",6,2016-06-01,107.69,2016,77.0865555555555,46.13,46.13
"1516",6,2016-06-02,100.32,2016,77.0865555555555,46.13,46.13
"1488",6,2016-06-03,105.35,2016,77.0865555555555,46.13,46.13
"1460",6,2016-06-04,135.64,2016,77.0865555555555,46.13,58.5534444444444
"1461",6,2016-06-05,128.1,2016,77.0865555555555,46.13,51.0134444444444
"1462",6,2016-06-06,120.11,2016,77.0865555555555,46.13,46.13
"1490",6,2016-06-07,160.97,2016,77.0865555555555,46.13,83.8834444444445
"1491",6,2016-06-08,93.38,2016,77.0865555555555,46.13,46.13
"1492",6,2016-06-09,71.19,2016,77.0865555555555,46.13,46.13
"1533",6,2016-06-10,110.14,2016,77.0865555555555,46.13,46.13
"1534",6,2016-06-11,84.54,2016,77.0865555555555,46.13,46.13
"1535",6,2016-06-12,97.21,2016,77.0865555555555,46.13,46.13
"1536",6,2016-06-13,72.23,2016,77.0865555555555,46.13,46.13
"1564",6,2016-06-14,66.04,2016,77.0865555555555,46.13,46.13
"1539",6,2016-06-15,60.59,2016,77.0865555555555,46.13,46.13
"1540",6,2016-06-16,70.81,2016,77.0865555555555,46.13,46.13
"1568",6,2016-06-17,60.93,2016,77.0865555555555,46.13,46.13
"1569",6,2016-06-18,51.15,2016,77.0865555555555,46.13,46.13
"1570",6,2016-06-19,130.14,2016,77.0865555555555,46.13,53.0534444444444
"1603",6,2016-06-20,60.38,2016,77.0865555555555,46.13,46.13
"1604",6,2016-06-21,87.79,2016,77.0865555555555,46.13,46.13
"1605",6,2016-06-22,72.71,2016,77.0865555555555,46.13,46.13
"1615",6,2016-06-23,63.13,2016,77.0865555555555,46.13,46.13
"1595",6,2016-06-24,216.48,2016,77.0865555555555,46.13,139.393444444444
"1596",6,2016-06-25,124.85,2016,77.0865555555555,46.13,47.7634444444444
"1572",6,2016-06-26,134.36,2016,77.0865555555555,46.13,57.2734444444445
"1531",6,2016-06-27,86.95,2016,77.0865555555555,46.13,46.13
"1503",6,2016-06-28,70.72,2016,77.0865555555555,46.13,46.13
"1448",6,2016-06-29,56.68,2016,77.0865555555555,46.13,46.13
"1476",6,2016-06-30,54.52,2016,77.0865555555555,46.13,46.13
"1585",6,2017-06-01,196.27,2017,77.0865555555555,46.13,119.183444444444
"1544",6,2017-06-02,227.22,2017,77.0865555555555,46.13,150.133444444444
"1489",6,2017-06-03,116.42,2017,77.0865555555555,46.13,46.13
"1517",6,2017-06-04,116.78,2017,77.0865555555555,46.13,46.13
"1518",6,2017-06-05,87.75,2017,77.0865555555555,46.13,46.13
"1532",6,2017-06-06,88.83,2017,77.0865555555555,46.13,46.13
"1560",6,2017-06-07,138.81,2017,77.0865555555555,46.13,61.7234444444445
"1561",6,2017-06-08,223.52,2017,77.0865555555555,46.13,146.433444444444
"1562",6,2017-06-09,192.09,2017,77.0865555555555,46.13,115.003444444444
"1576",6,2017-06-10,112.37,2017,77.0865555555555,46.13,46.13
"1552",6,2017-06-11,112.38,2017,77.0865555555555,46.13,46.13
"1553",6,2017-06-12,169.89,2017,77.0865555555555,46.13,92.8034444444444
"1567",6,2017-06-13,237.85,2017,77.0865555555555,46.13,160.763444444444
"1582",6,2017-06-14,119.39,2017,77.0865555555555,46.13,46.13
"1579",6,2017-06-15,215.75,2017,77.0865555555555,46.13,138.663444444444
"1606",6,2017-06-16,158.97,2017,77.0865555555555,46.13,81.8834444444445
"1613",6,2017-06-17,226.61,2017,77.0865555555555,46.13,149.523444444444
"1614",6,2017-06-18,196.72,2017,77.0865555555555,46.13,119.633444444444
"1624",6,2017-06-19,178.18,2017,77.0865555555555,46.13,101.093444444444
"1626",6,2017-06-20,154.33,2017,77.0865555555555,46.13,77.2434444444445
"1625",6,2017-06-21,184.67,2017,77.0865555555555,46.13,107.583444444444
"1607",6,2017-06-22,141.09,2017,77.0865555555555,46.13,64.0034444444445
"1601",6,2017-06-23,159.23,2017,77.0865555555555,46.13,82.1434444444444
"1575",6,2017-06-24,148.28,2017,77.0865555555555,46.13,71.1934444444445
"1574",6,2017-06-25,99.75,2017,77.0865555555555,46.13,46.13
"1573",6,2017-06-26,233.84,2017,77.0865555555555,46.13,156.753444444444
"1545",6,2017-06-27,230.97,2017,77.0865555555555,46.13,153.883444444444
"1504",6,2017-06-28,194.7,2017,77.0865555555555,46.13,117.613444444444
"1505",6,2017-06-29,156.46,2017,77.0865555555555,46.13,79.3734444444445
"1477",6,2017-06-30,332.62,2017,77.0865555555555,46.13,255.533444444444
"1586",6,2018-06-01,340.15,2018,77.0865555555555,46.13,263.063444444444
"1558",6,2018-06-02,389.99,2018,77.0865555555555,46.13,312.903444444444
"1559",6,2018-06-03,377.83,2018,77.0865555555555,46.13,300.743444444444
"1583",6,2018-06-04,190.91,2018,77.0865555555555,46.13,113.823444444444
"1588",6,2018-06-05,177.81,2018,77.0865555555555,46.13,100.723444444444
"1602",6,2018-06-06,153.35,2018,77.0865555555555,46.13,76.2634444444444
"1590",6,2018-06-07,170.6,2018,77.0865555555555,46.13,93.5134444444444
"1566",6,2018-06-08,95.13,2018,77.0865555555555,46.13,46.13
"1580",6,2018-06-09,218.05,2018,77.0865555555555,46.13,140.963444444444
"1581",6,2018-06-10,127.38,2018,77.0865555555555,46.13,50.2934444444444
"1592",6,2018-06-11,143.38,2018,77.0865555555555,46.13,66.2934444444444
"1611",6,2018-06-12,198.72,2018,77.0865555555555,46.13,121.633444444444
"1612",6,2018-06-13,122.86,2018,77.0865555555555,46.13,46.13
"1619",6,2018-06-14,156.02,2018,77.0865555555555,46.13,78.9334444444445
"1629",6,2018-06-15,137.04,2018,77.0865555555555,46.13,59.9534444444444
"1627",6,2018-06-16,130.36,2018,77.0865555555555,46.13,53.2734444444445
"1623",6,2018-06-17,153.09,2018,77.0865555555555,46.13,76.0034444444445
"1622",6,2018-06-18,102.73,2018,77.0865555555555,46.13,46.13
"1617",6,2018-06-19,93.25,2018,77.0865555555555,46.13,46.13
"1599",6,2018-06-20,112.07,2018,77.0865555555555,46.13,46.13
"1563",6,2018-06-21,183.35,2018,77.0865555555555,46.13,106.263444444444
"1589",6,2018-06-22,128.94,2018,77.0865555555555,46.13,51.8534444444444
"1523",6,2018-06-23,180.33,2018,77.0865555555555,46.13,103.243444444444
"1549",6,2018-06-24,239.54,2018,77.0865555555555,46.13,162.453444444444
"1548",6,2018-06-25,156.91,2018,77.0865555555555,46.13,79.8234444444444
"1547",6,2018-06-26,168.77,2018,77.0865555555555,46.13,91.6834444444445
"1546",6,2018-06-27,104.74,2018,77.0865555555555,46.13,46.13
"1520",6,2018-06-28,168.86,2018,77.0865555555555,46.13,91.7734444444445
"1519",6,2018-06-29,184.54,2018,77.0865555555555,46.13,107.453444444444
"1478",6,2018-06-30,207.25,2018,77.0865555555555,46.13,130.163444444444
"1610",6,2019-06-01,293,2019,77.0865555555555,46.13,215.913444444444
"1616",6,2019-06-02,257.62,2019,77.0865555555555,46.13,180.533444444444
"1608",6,2019-06-03,173.37,2019,77.0865555555555,46.13,96.2834444444445
"1565",6,2019-06-04,169.61,2019,77.0865555555555,46.13,92.5234444444445
"1593",6,2019-06-05,228.57,2019,77.0865555555555,46.13,151.483444444444
"1594",6,2019-06-06,167.17,2019,77.0865555555555,46.13,90.0834444444444
"1591",6,2019-06-07,267.68,2019,77.0865555555555,46.13,190.593444444444
"1620",6,2019-06-08,285.05,2019,77.0865555555555,46.13,207.963444444444
"1621",6,2019-06-09,203.99,2019,77.0865555555555,46.13,126.903444444444
"1618",6,2019-06-10,188.23,2019,77.0865555555555,46.13,111.143444444444
"1630",6,2019-06-11,198.82,2019,77.0865555555555,46.13,121.733444444444
"1631",6,2019-06-12,227.25,2019,77.0865555555555,46.13,150.163444444444
"1628",6,2019-06-13,188.64,2019,77.0865555555555,46.13,111.553444444444
"1609",6,2019-06-14,234.39,2019,77.0865555555555,46.13,157.303444444444
"1600",6,2019-06-15,250.49,2019,77.0865555555555,46.13,173.403444444444
"1587",6,2019-06-16,173.44,2019,77.0865555555555,46.13,96.3534444444444
"1578",6,2019-06-17,144.33,2019,77.0865555555555,46.13,67.2434444444445
"1577",6,2019-06-18,120.39,2019,77.0865555555555,46.13,46.13
"1551",6,2019-06-19,110.19,2019,77.0865555555555,46.13,46.13
"1512",6,2019-06-20,132.48,2019,77.0865555555555,46.13,55.3934444444444
"1524",6,2019-06-21,117,2019,77.0865555555555,46.13,46.13
"1485",6,2019-06-22,101.16,2019,77.0865555555555,46.13,46.13
"1484",6,2019-06-23,123.1,2019,77.0865555555555,46.13,46.13
"1483",6,2019-06-24,128.67,2019,77.0865555555555,46.13,51.5834444444444
"1522",6,2019-06-25,118.72,2019,77.0865555555555,46.13,46.13
"1521",6,2019-06-26,106.27,2019,77.0865555555555,46.13,46.13
"1482",6,2019-06-27,121.72,2019,77.0865555555555,46.13,46.13
"1481",6,2019-06-28,113.95,2019,77.0865555555555,46.13,46.13
"1480",6,2019-06-29,104.3,2019,77.0865555555555,46.13,46.13
"1479",6,2019-06-30,101.63,2019,77.0865555555555,46.13,46.13
