"","Mes","Fecha","q","Anual","qmaxa","qmin","qaa"
"1220",5,2011-05-01,304.09,2011,182.96235483871,43.99,121.12764516129
"1221",5,2011-05-02,298.03,2011,182.96235483871,43.99,115.06764516129
"1180",5,2011-05-03,239.51,2011,182.96235483871,43.99,56.5476451612903
"1179",5,2011-05-04,219.55,2011,182.96235483871,43.99,43.99
"1178",5,2011-05-05,211.01,2011,182.96235483871,43.99,43.99
"1177",5,2011-05-06,203.17,2011,182.96235483871,43.99,43.99
"1139",5,2011-05-07,278.62,2011,182.96235483871,43.99,95.6576451612904
"1138",5,2011-05-08,208.83,2011,182.96235483871,43.99,43.99
"1137",5,2011-05-09,199.13,2011,182.96235483871,43.99,43.99
"1136",5,2011-05-10,201.13,2011,182.96235483871,43.99,43.99
"1135",5,2011-05-11,222.08,2011,182.96235483871,43.99,43.99
"1100",5,2011-05-12,202.67,2011,182.96235483871,43.99,43.99
"1088",5,2011-05-13,223.12,2011,182.96235483871,43.99,43.99
"1087",5,2011-05-14,402.77,2011,182.96235483871,43.99,219.80764516129
"1083",5,2011-05-15,276.69,2011,182.96235483871,43.99,93.7276451612904
"1086",5,2011-05-16,227.58,2011,182.96235483871,43.99,44.6176451612904
"1091",5,2011-05-17,235.52,2011,182.96235483871,43.99,52.5576451612904
"1099",5,2011-05-18,237.63,2011,182.96235483871,43.99,54.6676451612904
"1096",5,2011-05-19,195.19,2011,182.96235483871,43.99,43.99
"1121",5,2011-05-20,167.41,2011,182.96235483871,43.99,43.99
"1109",5,2011-05-21,231.15,2011,182.96235483871,43.99,48.1876451612904
"1110",5,2011-05-22,420.19,2011,182.96235483871,43.99,237.22764516129
"1111",5,2011-05-23,312.79,2011,182.96235483871,43.99,129.82764516129
"1112",5,2011-05-24,249.14,2011,182.96235483871,43.99,66.1776451612903
"1113",5,2011-05-25,325.56,2011,182.96235483871,43.99,142.59764516129
"1114",5,2011-05-26,236.89,2011,182.96235483871,43.99,53.9276451612903
"1115",5,2011-05-27,184.72,2011,182.96235483871,43.99,43.99
"1116",5,2011-05-28,190.67,2011,182.96235483871,43.99,43.99
"1117",5,2011-05-29,159.19,2011,182.96235483871,43.99,43.99
"1118",5,2011-05-30,137.74,2011,182.96235483871,43.99,43.99
"1119",5,2011-05-31,148.96,2011,182.96235483871,43.99,43.99
"1263",5,2012-05-01,532.46,2012,182.96235483871,43.99,349.49764516129
"1222",5,2012-05-02,476.78,2012,182.96235483871,43.99,293.81764516129
"1181",5,2012-05-03,398.9,2012,182.96235483871,43.99,215.93764516129
"1140",5,2012-05-04,285.19,2012,182.96235483871,43.99,102.22764516129
"1141",5,2012-05-05,259.87,2012,182.96235483871,43.99,76.9076451612904
"1104",5,2012-05-06,342.29,2012,182.96235483871,43.99,159.32764516129
"1103",5,2012-05-07,395.56,2012,182.96235483871,43.99,212.59764516129
"1098",5,2012-05-08,325.32,2012,182.96235483871,43.99,142.35764516129
"1097",5,2012-05-09,429.5,2012,182.96235483871,43.99,246.53764516129
"1089",5,2012-05-10,296.24,2012,182.96235483871,43.99,113.27764516129
"1084",5,2012-05-11,271.36,2012,182.96235483871,43.99,88.3976451612904
"1085",5,2012-05-12,405.29,2012,182.96235483871,43.99,222.32764516129
"1093",5,2012-05-13,434.45,2012,182.96235483871,43.99,251.48764516129
"1094",5,2012-05-14,327.05,2012,182.96235483871,43.99,144.08764516129
"1106",5,2012-05-15,195.94,2012,182.96235483871,43.99,43.99
"1120",5,2012-05-16,199.87,2012,182.96235483871,43.99,43.99
"1149",5,2012-05-17,165.88,2012,182.96235483871,43.99,43.99
"1150",5,2012-05-18,269.43,2012,182.96235483871,43.99,86.4676451612904
"1151",5,2012-05-19,212.47,2012,182.96235483871,43.99,43.99
"1152",5,2012-05-20,309.15,2012,182.96235483871,43.99,126.18764516129
"1153",5,2012-05-21,241.29,2012,182.96235483871,43.99,58.3276451612903
"1154",5,2012-05-22,403.3,2012,182.96235483871,43.99,220.33764516129
"1155",5,2012-05-23,472.81,2012,182.96235483871,43.99,289.84764516129
"1156",5,2012-05-24,308.88,2012,182.96235483871,43.99,125.91764516129
"1157",5,2012-05-25,245.38,2012,182.96235483871,43.99,62.4176451612904
"1158",5,2012-05-26,467.16,2012,182.96235483871,43.99,284.19764516129
"1159",5,2012-05-27,229,2012,182.96235483871,43.99,46.0376451612904
"1160",5,2012-05-28,183.5,2012,182.96235483871,43.99,43.99
"1161",5,2012-05-29,150.82,2012,182.96235483871,43.99,43.99
"1133",5,2012-05-30,139.92,2012,182.96235483871,43.99,43.99
"1134",5,2012-05-31,133.75,2012,182.96235483871,43.99,43.99
"1264",5,2013-05-01,127.63,2013,182.96235483871,43.99,43.99
"1223",5,2013-05-02,135.36,2013,182.96235483871,43.99,43.99
"1182",5,2013-05-03,89.73,2013,182.96235483871,43.99,43.99
"1224",5,2013-05-04,147.05,2013,182.96235483871,43.99,43.99
"1183",5,2013-05-05,256.2,2013,182.96235483871,43.99,73.2376451612903
"1142",5,2013-05-06,215.33,2013,182.96235483871,43.99,43.99
"1101",5,2013-05-07,124.85,2013,182.96235483871,43.99,43.99
"1090",5,2013-05-08,122.06,2013,182.96235483871,43.99,43.99
"1095",5,2013-05-09,134.26,2013,182.96235483871,43.99,43.99
"1092",5,2013-05-10,162.47,2013,182.96235483871,43.99,43.99
"1108",5,2013-05-11,127.25,2013,182.96235483871,43.99,43.99
"1105",5,2013-05-12,81.66,2013,182.96235483871,43.99,43.99
"1147",5,2013-05-13,161.54,2013,182.96235483871,43.99,43.99
"1148",5,2013-05-14,75.27,2013,182.96235483871,43.99,43.99
"1190",5,2013-05-15,189.48,2013,182.96235483871,43.99,43.99
"1191",5,2013-05-16,134.12,2013,182.96235483871,43.99,43.99
"1192",5,2013-05-17,301.85,2013,182.96235483871,43.99,118.88764516129
"1193",5,2013-05-18,126.98,2013,182.96235483871,43.99,43.99
"1194",5,2013-05-19,128.82,2013,182.96235483871,43.99,43.99
"1195",5,2013-05-20,211.54,2013,182.96235483871,43.99,43.99
"1196",5,2013-05-21,203.51,2013,182.96235483871,43.99,43.99
"1197",5,2013-05-22,374.53,2013,182.96235483871,43.99,191.56764516129
"1198",5,2013-05-23,364.9,2013,182.96235483871,43.99,181.93764516129
"1199",5,2013-05-24,435.81,2013,182.96235483871,43.99,252.84764516129
"1200",5,2013-05-25,235.88,2013,182.96235483871,43.99,52.9176451612904
"1201",5,2013-05-26,158.84,2013,182.96235483871,43.99,43.99
"1189",5,2013-05-27,130.72,2013,182.96235483871,43.99,43.99
"1203",5,2013-05-28,120.89,2013,182.96235483871,43.99,43.99
"1162",5,2013-05-29,175.74,2013,182.96235483871,43.99,43.99
"1163",5,2013-05-30,206.39,2013,182.96235483871,43.99,43.99
"1122",5,2013-05-31,214.61,2013,182.96235483871,43.99,43.99
"1293",5,2014-05-01,126.04,2014,182.96235483871,43.99,43.99
"1265",5,2014-05-02,112.19,2014,182.96235483871,43.99,43.99
"1266",5,2014-05-03,105.15,2014,182.96235483871,43.99,43.99
"1225",5,2014-05-04,83.48,2014,182.96235483871,43.99,43.99
"1184",5,2014-05-05,80.06,2014,182.96235483871,43.99,43.99
"1143",5,2014-05-06,106.26,2014,182.96235483871,43.99,43.99
"1102",5,2014-05-07,119.16,2014,182.96235483871,43.99,43.99
"1107",5,2014-05-08,120.67,2014,182.96235483871,43.99,43.99
"1145",5,2014-05-09,226.36,2014,182.96235483871,43.99,43.99
"1146",5,2014-05-10,248.38,2014,182.96235483871,43.99,65.4176451612904
"1188",5,2014-05-11,296.77,2014,182.96235483871,43.99,113.80764516129
"1176",5,2014-05-12,153.22,2014,182.96235483871,43.99,43.99
"1218",5,2014-05-13,205.58,2014,182.96235483871,43.99,43.99
"1219",5,2014-05-14,129.17,2014,182.96235483871,43.99,43.99
"1233",5,2014-05-15,145.94,2014,182.96235483871,43.99,43.99
"1234",5,2014-05-16,119.84,2014,182.96235483871,43.99,43.99
"1235",5,2014-05-17,214.75,2014,182.96235483871,43.99,43.99
"1236",5,2014-05-18,161.52,2014,182.96235483871,43.99,43.99
"1237",5,2014-05-19,116.44,2014,182.96235483871,43.99,43.99
"1238",5,2014-05-20,97.81,2014,182.96235483871,43.99,43.99
"1239",5,2014-05-21,138.08,2014,182.96235483871,43.99,43.99
"1240",5,2014-05-22,112.11,2014,182.96235483871,43.99,43.99
"1228",5,2014-05-23,127.01,2014,182.96235483871,43.99,43.99
"1229",5,2014-05-24,163.15,2014,182.96235483871,43.99,43.99
"1230",5,2014-05-25,97.93,2014,182.96235483871,43.99,43.99
"1231",5,2014-05-26,98.82,2014,182.96235483871,43.99,43.99
"1232",5,2014-05-27,82.76,2014,182.96235483871,43.99,43.99
"1204",5,2014-05-28,153.27,2014,182.96235483871,43.99,43.99
"1205",5,2014-05-29,135.09,2014,182.96235483871,43.99,43.99
"1164",5,2014-05-30,128.69,2014,182.96235483871,43.99,43.99
"1123",5,2014-05-31,152.17,2014,182.96235483871,43.99,43.99
"1268",5,2015-05-01,77.05,2015,182.96235483871,43.99,43.99
"1269",5,2015-05-02,64.71,2015,182.96235483871,43.99,43.99
"1254",5,2015-05-03,58.36,2015,182.96235483871,43.99,43.99
"1226",5,2015-05-04,103.02,2015,182.96235483871,43.99,43.99
"1185",5,2015-05-05,67.43,2015,182.96235483871,43.99,43.99
"1144",5,2015-05-06,43.99,2015,182.96235483871,43.99,43.99
"1186",5,2015-05-07,93.77,2015,182.96235483871,43.99,43.99
"1187",5,2015-05-08,133.89,2015,182.96235483871,43.99,43.99
"1216",5,2015-05-09,78.31,2015,182.96235483871,43.99,43.99
"1217",5,2015-05-10,62.19,2015,182.96235483871,43.99,43.99
"1259",5,2015-05-11,46.24,2015,182.96235483871,43.99,43.99
"1260",5,2015-05-12,57.76,2015,182.96235483871,43.99,43.99
"1261",5,2015-05-13,87.84,2015,182.96235483871,43.99,43.99
"1262",5,2015-05-14,50.73,2015,182.96235483871,43.99,43.99
"1276",5,2015-05-15,164.85,2015,182.96235483871,43.99,43.99
"1277",5,2015-05-16,219.29,2015,182.96235483871,43.99,43.99
"1278",5,2015-05-17,184.87,2015,182.96235483871,43.99,43.99
"1279",5,2015-05-18,167.59,2015,182.96235483871,43.99,43.99
"1267",5,2015-05-19,224.86,2015,182.96235483871,43.99,43.99
"1255",5,2015-05-20,100.44,2015,182.96235483871,43.99,43.99
"1256",5,2015-05-21,348.08,2015,182.96235483871,43.99,165.11764516129
"1257",5,2015-05-22,200.24,2015,182.96235483871,43.99,43.99
"1258",5,2015-05-23,166.78,2015,182.96235483871,43.99,43.99
"1272",5,2015-05-24,148.21,2015,182.96235483871,43.99,43.99
"1273",5,2015-05-25,135.57,2015,182.96235483871,43.99,43.99
"1274",5,2015-05-26,110.02,2015,182.96235483871,43.99,43.99
"1246",5,2015-05-27,159.39,2015,182.96235483871,43.99,43.99
"1247",5,2015-05-28,162.3,2015,182.96235483871,43.99,43.99
"1206",5,2015-05-29,395.23,2015,182.96235483871,43.99,212.26764516129
"1165",5,2015-05-30,422.26,2015,182.96235483871,43.99,239.29764516129
"1124",5,2015-05-31,339.36,2015,182.96235483871,43.99,156.39764516129
"1311",5,2016-05-01,174.69,2016,182.96235483871,43.99,43.99
"1270",5,2016-05-02,111.12,2016,182.96235483871,43.99,43.99
"1242",5,2016-05-03,101.16,2016,182.96235483871,43.99,43.99
"1227",5,2016-05-04,109.11,2016,182.96235483871,43.99,43.99
"1215",5,2016-05-05,60.03,2016,182.96235483871,43.99,43.99
"1244",5,2016-05-06,87.63,2016,182.96235483871,43.99,43.99
"1245",5,2016-05-07,113.29,2016,182.96235483871,43.99,43.99
"1287",5,2016-05-08,120.77,2016,182.96235483871,43.99,43.99
"1288",5,2016-05-09,114.03,2016,182.96235483871,43.99,43.99
"1302",5,2016-05-10,194.97,2016,182.96235483871,43.99,43.99
"1303",5,2016-05-11,139.09,2016,182.96235483871,43.99,43.99
"1304",5,2016-05-12,102.47,2016,182.96235483871,43.99,43.99
"1305",5,2016-05-13,77.49,2016,182.96235483871,43.99,43.99
"1306",5,2016-05-14,77.27,2016,182.96235483871,43.99,43.99
"1281",5,2016-05-15,55.24,2016,182.96235483871,43.99,43.99
"1282",5,2016-05-16,76.15,2016,182.96235483871,43.99,43.99
"1283",5,2016-05-17,119.03,2016,182.96235483871,43.99,43.99
"1284",5,2016-05-18,87.1,2016,182.96235483871,43.99,43.99
"1298",5,2016-05-19,79.53,2016,182.96235483871,43.99,43.99
"1299",5,2016-05-20,68.21,2016,182.96235483871,43.99,43.99
"1300",5,2016-05-21,93.73,2016,182.96235483871,43.99,43.99
"1301",5,2016-05-22,77.9,2016,182.96235483871,43.99,43.99
"1315",5,2016-05-23,71.35,2016,182.96235483871,43.99,43.99
"1316",5,2016-05-24,44.74,2016,182.96235483871,43.99,43.99
"1275",5,2016-05-25,60.38,2016,182.96235483871,43.99,43.99
"1289",5,2016-05-26,110.5,2016,182.96235483871,43.99,43.99
"1248",5,2016-05-27,72.39,2016,182.96235483871,43.99,43.99
"1207",5,2016-05-28,117.43,2016,182.96235483871,43.99,43.99
"1166",5,2016-05-29,99.52,2016,182.96235483871,43.99,43.99
"1125",5,2016-05-30,89.3,2016,182.96235483871,43.99,43.99
"1126",5,2016-05-31,299.18,2016,182.96235483871,43.99,116.21764516129
"1312",5,2017-05-01,116.55,2017,182.96235483871,43.99,43.99
"1271",5,2017-05-02,195.29,2017,182.96235483871,43.99,43.99
"1243",5,2017-05-03,125.28,2017,182.96235483871,43.99,43.99
"1285",5,2017-05-04,143.39,2017,182.96235483871,43.99,43.99
"1286",5,2017-05-05,158.05,2017,182.96235483871,43.99,43.99
"1328",5,2017-05-06,470.76,2017,182.96235483871,43.99,287.79764516129
"1329",5,2017-05-07,219.69,2017,182.96235483871,43.99,43.99
"1330",5,2017-05-08,388.78,2017,182.96235483871,43.99,205.81764516129
"1331",5,2017-05-09,254.21,2017,182.96235483871,43.99,71.2476451612904
"1332",5,2017-05-10,306.82,2017,182.96235483871,43.99,123.85764516129
"1294",5,2017-05-11,257.95,2017,182.96235483871,43.99,74.9876451612903
"1295",5,2017-05-12,326.92,2017,182.96235483871,43.99,143.95764516129
"1296",5,2017-05-13,188.66,2017,182.96235483871,43.99,43.99
"1297",5,2017-05-14,183.04,2017,182.96235483871,43.99,43.99
"1324",5,2017-05-15,256.1,2017,182.96235483871,43.99,73.1376451612904
"1325",5,2017-05-16,294.5,2017,182.96235483871,43.99,111.53764516129
"1326",5,2017-05-17,230.93,2017,182.96235483871,43.99,47.9676451612904
"1327",5,2017-05-18,302.74,2017,182.96235483871,43.99,119.77764516129
"1337",5,2017-05-19,205.8,2017,182.96235483871,43.99,43.99
"1338",5,2017-05-20,170.34,2017,182.96235483871,43.99,43.99
"1339",5,2017-05-21,274.36,2017,182.96235483871,43.99,91.3976451612904
"1317",5,2017-05-22,171.72,2017,182.96235483871,43.99,43.99
"1291",5,2017-05-23,151.7,2017,182.96235483871,43.99,43.99
"1290",5,2017-05-24,110.11,2017,182.96235483871,43.99,43.99
"1251",5,2017-05-25,102.94,2017,182.96235483871,43.99,43.99
"1250",5,2017-05-26,130.34,2017,182.96235483871,43.99,43.99
"1249",5,2017-05-27,160.02,2017,182.96235483871,43.99,43.99
"1208",5,2017-05-28,115.67,2017,182.96235483871,43.99,43.99
"1167",5,2017-05-29,123.26,2017,182.96235483871,43.99,43.99
"1168",5,2017-05-30,106.89,2017,182.96235483871,43.99,43.99
"1127",5,2017-05-31,189.27,2017,182.96235483871,43.99,43.99
"1346",5,2018-05-01,134.31,2018,182.96235483871,43.99,43.99
"1313",5,2018-05-02,133.2,2018,182.96235483871,43.99,43.99
"1314",5,2018-05-03,133.3,2018,182.96235483871,43.99,43.99
"1348",5,2018-05-04,204.47,2018,182.96235483871,43.99,43.99
"1349",5,2018-05-05,188.46,2018,182.96235483871,43.99,43.99
"1350",5,2018-05-06,138.9,2018,182.96235483871,43.99,43.99
"1307",5,2018-05-07,233.75,2018,182.96235483871,43.99,50.7876451612904
"1308",5,2018-05-08,373.14,2018,182.96235483871,43.99,190.17764516129
"1309",5,2018-05-09,424.66,2018,182.96235483871,43.99,241.69764516129
"1310",5,2018-05-10,450.37,2018,182.96235483871,43.99,267.40764516129
"1333",5,2018-05-11,413,2018,182.96235483871,43.99,230.03764516129
"1334",5,2018-05-12,281.2,2018,182.96235483871,43.99,98.2376451612903
"1335",5,2018-05-13,400.65,2018,182.96235483871,43.99,217.68764516129
"1336",5,2018-05-14,348.04,2018,182.96235483871,43.99,165.07764516129
"1351",5,2018-05-15,386.51,2018,182.96235483871,43.99,203.54764516129
"1352",5,2018-05-16,268.82,2018,182.96235483871,43.99,85.8576451612903
"1353",5,2018-05-17,341.18,2018,182.96235483871,43.99,158.21764516129
"1354",5,2018-05-18,274.76,2018,182.96235483871,43.99,91.7976451612903
"1340",5,2018-05-19,261.67,2018,182.96235483871,43.99,78.7076451612904
"1318",5,2018-05-20,654.97,2018,182.96235483871,43.99,472.00764516129
"1292",5,2018-05-21,336.86,2018,182.96235483871,43.99,153.89764516129
"1253",5,2018-05-22,326.92,2018,182.96235483871,43.99,143.95764516129
"1252",5,2018-05-23,279.85,2018,182.96235483871,43.99,96.8876451612904
"1213",5,2018-05-24,218.97,2018,182.96235483871,43.99,43.99
"1212",5,2018-05-25,250.19,2018,182.96235483871,43.99,67.2276451612904
"1211",5,2018-05-26,231.18,2018,182.96235483871,43.99,48.2176451612904
"1210",5,2018-05-27,361.13,2018,182.96235483871,43.99,178.16764516129
"1209",5,2018-05-28,391.4,2018,182.96235483871,43.99,208.43764516129
"1170",5,2018-05-29,211.28,2018,182.96235483871,43.99,43.99
"1169",5,2018-05-30,204.37,2018,182.96235483871,43.99,43.99
"1128",5,2018-05-31,224,2018,182.96235483871,43.99,43.99
"1347",5,2019-05-01,83.33,2019,182.96235483871,43.99,43.99
"1360",5,2019-05-02,71.33,2019,182.96235483871,43.99,43.99
"1320",5,2019-05-03,108.63,2019,182.96235483871,43.99,43.99
"1321",5,2019-05-04,75.93,2019,182.96235483871,43.99,43.99
"1322",5,2019-05-05,100.97,2019,182.96235483871,43.99,43.99
"1323",5,2019-05-06,72.53,2019,182.96235483871,43.99,43.99
"1342",5,2019-05-07,84.9,2019,182.96235483871,43.99,43.99
"1343",5,2019-05-08,82.83,2019,182.96235483871,43.99,43.99
"1344",5,2019-05-09,148.02,2019,182.96235483871,43.99,43.99
"1345",5,2019-05-10,300.35,2019,182.96235483871,43.99,117.38764516129
"1356",5,2019-05-11,364.24,2019,182.96235483871,43.99,181.27764516129
"1357",5,2019-05-12,287.59,2019,182.96235483871,43.99,104.62764516129
"1358",5,2019-05-13,187.46,2019,182.96235483871,43.99,43.99
"1359",5,2019-05-14,254.79,2019,182.96235483871,43.99,71.8276451612903
"1361",5,2019-05-15,143.17,2019,182.96235483871,43.99,43.99
"1355",5,2019-05-16,106.48,2019,182.96235483871,43.99,43.99
"1341",5,2019-05-17,161.05,2019,182.96235483871,43.99,43.99
"1319",5,2019-05-18,142.03,2019,182.96235483871,43.99,43.99
"1280",5,2019-05-19,199.7,2019,182.96235483871,43.99,43.99
"1241",5,2019-05-20,214.23,2019,182.96235483871,43.99,43.99
"1202",5,2019-05-21,292.54,2019,182.96235483871,43.99,109.57764516129
"1214",5,2019-05-22,305.7,2019,182.96235483871,43.99,122.73764516129
"1175",5,2019-05-23,352.17,2019,182.96235483871,43.99,169.20764516129
"1174",5,2019-05-24,215.99,2019,182.96235483871,43.99,43.99
"1173",5,2019-05-25,321.87,2019,182.96235483871,43.99,138.90764516129
"1172",5,2019-05-26,227.91,2019,182.96235483871,43.99,44.9476451612904
"1171",5,2019-05-27,404.18,2019,182.96235483871,43.99,221.21764516129
"1132",5,2019-05-28,280.15,2019,182.96235483871,43.99,97.1876451612903
"1131",5,2019-05-29,233.41,2019,182.96235483871,43.99,50.4476451612904
"1130",5,2019-05-30,371.99,2019,182.96235483871,43.99,189.02764516129
"1129",5,2019-05-31,237.16,2019,182.96235483871,43.99,54.1976451612904
